level,# of rows,sum of NNZs,NNZs per HW thread
0,172,172,7.16667
1,178,364,15.1667
2,185,394,16.4167
3,195,441,18.375
4,208,501,20.875
5,219,590,24.5833
6,230,667,27.7917
7,240,766,31.9167
8,247,826,34.4167
9,257,931,38.7917
10,266,1015,42.2917
11,276,1130,47.0833
12,285,1222,50.9167
13,295,1332,55.5
14,300,1375,57.2917
15,304,1446,60.25
16,152,1212,50.5
17,154,1304,54.3333
18,152,1377,57.375
19,154,1460,60.8333
20,143,1435,59.7917
21,143,1509,62.875
22,133,1454,60.5833
23,129,1432,59.6667
24,118,1339,55.7917
25,112,1294,53.9167
26,104,1212,50.5
27,97,1149,47.875
28,91,1102,45.9167
29,83,1017,42.375
30,78,976,40.6667
31,69,864,36
32,66,842,35.0833
33,58,770,32.0833
34,53,659,27.4583
35,44,553,23.0417
36,39,483,20.125
37,33,444,18.5
38,37,502,20.9167
39,30,406,16.9167
40,32,493,20.5417
41,29,452,18.8333
42,28,360,15
43,30,412,17.1667
44,30,397,16.5417
45,30,440,18.3333
46,30,389,16.2083
47,28,340,14.1667
48,30,347,14.4583
49,31,426,17.75
50,34,538,22.4167
51,34,522,21.75
52,37,612,25.5
53,38,656,27.3333
54,33,554,23.0833
55,29,438,18.25
56,29,399,16.625
57,29,442,18.4167
58,30,490,20.4167
59,31,598,24.9167
60,31,684,28.5
61,31,640,26.6667
62,33,827,34.4583
63,38,836,34.8333
64,31,691,28.7917
65,31,678,28.25
66,33,729,30.375
67,32,672,28
68,29,565,23.5417
69,23,563,23.4583
70,23,535,22.2917
71,29,514,21.4167
72,31,532,22.1667
73,31,484,20.1667
74,29,421,17.5417
75,36,506,21.0833
76,42,575,23.9583
77,43,590,24.5833
78,44,561,23.375
79,45,554,23.0833
80,51,668,27.8333
81,50,663,27.625
82,54,815,33.9583
83,56,923,38.4583
84,60,973,40.5417
85,58,996,41.5
86,61,1067,44.4583
87,55,983,40.9583
88,61,1026,42.75
89,55,926,38.5833
90,57,1029,42.875
91,49,977,40.7083
92,53,947,39.4583
93,51,887,36.9583
94,53,947,39.4583
95,46,758,31.5833
96,46,753,31.375
97,47,934,38.9167
98,50,984,41
99,52,1116,46.5
100,56,1256,52.3333
101,61,1413,58.875
102,65,1553,64.7083
103,71,1662,69.25
104,75,1834,76.4167
105,75,1726,71.9167
106,74,1599,66.625
107,70,1531,63.7917
108,66,1421,59.2083
109,71,1608,67
110,71,1477,61.5417
111,71,1509,62.875
112,70,1413,58.875
113,71,1400,58.3333
114,73,1306,54.4167
115,69,1194,49.75
116,76,1252,52.1667
117,84,1426,59.4167
118,88,1362,56.75
119,89,1480,61.6667
120,93,1461,60.875
121,101,1729,72.0417
122,101,1717,71.5417
123,100,1929,80.375
124,99,1838,76.5833
125,104,2012,83.8333
126,107,2045,85.2083
127,104,2215,92.2917
128,110,2219,92.4583
129,114,2478,103.25
130,119,2644,110.167
131,118,2764,115.167
132,120,2663,110.958
133,116,2415,100.625
134,118,2539,105.792
135,111,2555,106.458
136,114,2518,104.917
137,106,2277,94.875
138,116,2477,103.208
139,107,2369,98.7083
140,112,2464,102.667
141,109,2409,100.375
142,115,2508,104.5
143,109,2508,104.5
144,116,2705,112.708
145,111,2655,110.625
146,118,2706,112.75
147,109,2695,112.292
148,115,2732,113.833
149,111,2751,114.625
150,121,2836,118.167
151,112,2848,118.667
152,123,2929,122.042
153,117,2974,123.917
154,131,3262,135.917
155,125,3360,140
156,133,3485,145.208
157,131,3581,149.208
158,141,3855,160.625
159,135,3771,157.125
160,137,3724,155.167
161,129,3519,146.625
162,134,3549,147.875
163,132,3723,155.125
164,130,3451,143.792
165,126,3358,139.917
166,132,3558,148.25
167,127,3490,145.417
168,126,3539,147.458
169,125,3381,140.875
170,124,3637,151.542
171,129,3782,157.583
172,119,3708,154.5
173,133,4082,170.083
174,127,4050,168.75
175,136,4462,185.917
176,131,4550,189.583
177,142,4865,202.708
178,126,4555,189.792
179,133,4660,194.167
180,121,4510,187.917
181,130,4720,196.667
182,116,4508,187.833
183,117,4288,178.667
184,106,4384,182.667
185,123,4808,200.333
186,106,4638,193.25
187,121,4864,202.667
188,108,4773,198.875
189,124,5227,217.792
190,109,4987,207.792
191,125,5303,220.958
192,115,5284,220.167
193,131,5565,231.875
194,123,5617,234.042
195,137,6181,257.542
196,140,6328,263.667
197,153,6668,277.833
198,145,6771,282.125
199,158,6918,288.25
200,153,6785,282.708
201,160,6730,280.417
202,148,6547,272.792
203,151,6442,268.417
204,139,6254,260.583
205,145,6157,256.542
206,132,6031,251.292
207,140,6015,250.625
208,132,5904,246
209,144,6123,255.125
210,138,6153,256.375
211,146,6145,256.042
212,138,6126,255.25
213,141,6003,250.125
214,133,5957,248.208
215,132,5690,237.083
216,126,5663,235.958
217,132,5571,232.125
218,123,5590,232.917
219,125,5422,225.917
220,126,5701,237.542
221,130,5534,230.583
222,125,5800,241.667
223,126,5605,233.542
224,126,5876,244.833
225,129,5879,244.958
226,127,6082,253.417
227,126,5937,247.375
228,125,6119,254.958
229,129,6241,260.042
230,134,6696,279
231,139,6852,285.5
232,142,6871,286.292
233,139,6860,285.833
234,144,7042,293.417
235,141,7020,292.5
236,146,6984,291
237,141,6951,289.625
238,145,7112,296.333
239,143,7152,298
240,147,7179,299.125
241,137,6929,288.708
242,141,7100,295.833
243,139,6990,291.25
244,141,6950,289.583
245,135,6813,283.875
246,140,6816,284
247,132,6623,275.958
248,136,6680,278.333
249,131,6583,274.292
250,135,6601,275.042
251,126,6253,260.542
252,128,6290,262.083
253,122,6056,252.333
254,122,6045,251.875
255,112,5732,238.833
256,119,5896,245.667
257,113,5723,238.458
258,112,5588,232.833
259,107,5615,233.958
260,117,5732,238.833
261,105,5436,226.5
262,106,5383,224.292
263,103,5381,224.208
264,109,5452,227.167
265,99,5209,217.042
266,105,5348,222.833
267,99,5204,216.833
268,104,5220,217.5
269,94,4950,206.25
270,98,5049,210.375
271,95,4996,208.167
272,101,5025,209.375
273,90,4727,196.958
274,95,4770,198.75
275,90,4628,192.833
276,93,4510,187.917
277,86,4309,179.542
278,89,4242,176.75
279,89,4207,175.292
280,92,4051,168.792
281,84,3734,155.583
282,83,3552,148
283,80,3363,140.125
284,78,3095,128.958
285,66,2596,108.167
286,58,2248,93.6667
287,51,1947,81.125
288,45,1651,68.7917
289,37,1352,56.3333
290,30,1073,44.7083
291,25,931,38.7917
292,22,782,32.5833
293,17,586,24.4167
294,11,379,15.7917
295,9,294,12.25
296,6,209,8.70833
297,6,175,7.29167
298,3,87,3.625
299,1,28,1.16667
workloadGranularity,avgTotalDD,maxTotalDDLevel,maxTotalDD, avg. # of rows per level,avg. # of nnzs per level
125.708,43.0067,144.617,8.63249,101.373,3017
NUM_THREADS:,24
CACHE_LINE:,64

thread workLoads & communication costs
0,1,2,3,4,5,6,7,8,9,10,11,12,13,14,15,16,17,18,19,20,21,22,23
37851,37851,37851,37851,37851,37849,37846,37846,37846,37846,37846,37846,37846,37846,37846,37846,37846,37843,37841,37841,37841,37836,37807,34682,
6051,10857,12220,13900,14584,14225,14527,13844,12067,11230,11507,12029,12232,11773,11239,10733,10234,9688,8471,9159,9932,10313,9790,8793,
stdev:,631.97
avgTotalDDThread:,5.20833
maxDD:,7
numOfThreadsUsed:,24


