level,# of rows,sum of NNZs,NNZs per HW thread
0,6286,6286,261.917
1,27993,56010,2333.75
2,60228,123877,5161.54
3,43104,91741,3822.54
4,39653,85814,3575.58
5,35987,80169,3340.38
6,87705,188242,7843.42
7,38602,86197,3591.54
8,49766,107920,4496.67
9,64282,138204,5758.5
10,31852,74356,3098.17
11,40519,98836,4118.17
12,69498,156247,6510.29
13,79671,174264,7261
14,30990,72275,3011.46
15,88133,187058,7794.08
16,16553,44188,1841.17
17,16462,43171,1798.79
18,15278,41125,1713.54
19,9286,26605,1108.54
20,10322,28804,1200.17
21,12505,42431,1767.96
22,12191,34628,1442.83
23,6786,20904,871
24,6448,18539,772.458
25,5209,15410,642.083
26,5404,15959,664.958
27,5272,15782,657.583
28,4392,13516,563.167
29,4372,13808,575.333
30,5026,14151,589.625
31,4602,13425,559.375
32,6058,17195,716.458
33,3302,10622,442.583
34,4003,13160,548.333
35,6099,16738,697.417
36,2887,8962,373.417
37,2753,9670,402.917
38,3117,10470,436.25
39,2515,9245,385.208
40,2033,6726,280.25
41,1852,5639,234.958
42,1895,5423,225.958
43,2128,6113,254.708
44,1566,5216,217.333
45,1689,4444,185.167
46,1072,3232,134.667
47,775,2897,120.708
48,616,2459,102.458
49,341,1236,51.5
50,377,1592,66.3333
51,314,2069,86.2083
52,459,1795,74.7917
53,343,1232,51.3333
54,418,1831,76.2917
55,570,1751,72.9583
56,426,1844,76.8333
57,548,1809,75.375
58,374,1220,50.8333
59,324,1220,50.8333
60,381,2082,86.75
61,275,1047,43.625
62,323,1125,46.875
63,300,997,41.5417
64,262,788,32.8333
65,251,853,35.5417
66,338,1331,55.4583
67,633,2780,115.833
68,465,1618,67.4167
69,392,1489,62.0417
70,303,1785,74.375
71,367,1275,53.125
72,255,1221,50.875
73,210,696,29
74,259,1066,44.4167
75,92,406,16.9167
76,104,373,15.5417
77,159,545,22.7083
78,166,1216,50.6667
79,143,491,20.4583
80,150,491,20.4583
81,135,906,37.75
82,168,682,28.4167
83,151,608,25.3333
84,169,592,24.6667
85,129,459,19.125
86,89,352,14.6667
87,144,545,22.7083
88,80,303,12.625
89,112,521,21.7083
90,262,826,34.4167
91,236,912,38
92,189,1172,48.8333
93,310,2880,120
94,400,1489,62.0417
95,322,1065,44.375
96,311,3947,164.458
97,229,833,34.7083
98,190,953,39.7083
99,177,541,22.5417
100,104,437,18.2083
101,167,597,24.875
102,192,513,21.375
103,417,1085,45.2083
104,374,1307,54.4583
105,217,847,35.2917
106,375,1501,62.5417
107,276,738,30.75
108,31,121,5.04167
109,56,187,7.79167
110,80,211,8.79167
111,39,118,4.91667
112,616,1276,53.1667
113,227,524,21.8333
114,46,158,6.58333
115,40,147,6.125
116,39,151,6.29167
117,36,146,6.08333
118,28,126,5.25
119,31,139,5.79167
120,51,215,8.95833
121,43,203,8.45833
122,82,471,19.625
123,71,728,30.3333
124,61,163,6.79167
125,10,28,1.16667
126,10,27,1.125
127,10,28,1.16667
128,10,27,1.125
129,12,30,1.25
130,10,27,1.125
131,16,42,1.75
132,12,45,1.875
133,10,31,1.29167
134,14,347,14.4583
135,9,19,0.791667
136,9,20,0.833333
137,9,20,0.833333
138,9,20,0.833333
139,9,21,0.875
140,9,19,0.791667
141,9,20,0.833333
142,9,20,0.833333
143,10,24,1
144,20,43,1.79167
145,10,24,1
146,9,19,0.791667
147,7,14,0.583333
148,6,12,0.5
149,6,12,0.5
150,6,12,0.5
151,6,12,0.5
152,6,12,0.5
153,6,12,0.5
154,7,14,0.583333
155,6,12,0.5
156,6,12,0.5
157,6,12,0.5
158,6,12,0.5
159,6,12,0.5
160,6,12,0.5
161,6,12,0.5
162,6,12,0.5
163,6,12,0.5
164,6,12,0.5
165,6,12,0.5
166,6,12,0.5
167,6,12,0.5
168,6,12,0.5
169,6,12,0.5
170,6,12,0.5
171,6,12,0.5
172,7,14,0.583333
173,6,12,0.5
174,6,12,0.5
175,6,12,0.5
176,6,12,0.5
177,6,12,0.5
178,6,12,0.5
179,6,12,0.5
180,6,12,0.5
181,6,12,0.5
182,6,12,0.5
183,6,12,0.5
184,6,12,0.5
185,6,12,0.5
186,6,12,0.5
187,6,12,0.5
188,6,12,0.5
189,6,12,0.5
190,6,12,0.5
191,6,12,0.5
192,6,12,0.5
193,6,12,0.5
194,6,12,0.5
195,6,12,0.5
196,6,12,0.5
197,6,12,0.5
198,6,12,0.5
199,6,12,0.5
200,6,12,0.5
201,7,14,0.583333
202,6,12,0.5
203,6,12,0.5
204,6,12,0.5
205,6,12,0.5
206,6,12,0.5
207,7,14,0.583333
208,6,12,0.5
209,6,12,0.5
210,6,12,0.5
211,6,12,0.5
212,6,12,0.5
213,6,12,0.5
214,6,12,0.5
215,4,8,0.333333
216,4,8,0.333333
217,4,8,0.333333
218,4,8,0.333333
219,4,8,0.333333
220,4,8,0.333333
221,4,8,0.333333
222,4,8,0.333333
223,4,8,0.333333
224,4,8,0.333333
225,4,8,0.333333
226,4,8,0.333333
227,4,8,0.333333
228,4,8,0.333333
229,4,8,0.333333
230,4,8,0.333333
231,4,8,0.333333
232,4,8,0.333333
233,4,8,0.333333
234,4,8,0.333333
235,4,8,0.333333
236,4,8,0.333333
237,4,8,0.333333
238,4,8,0.333333
239,4,8,0.333333
240,4,8,0.333333
241,4,8,0.333333
242,4,8,0.333333
243,4,8,0.333333
244,4,8,0.333333
245,4,8,0.333333
246,4,8,0.333333
247,4,8,0.333333
248,4,8,0.333333
249,4,8,0.333333
250,4,8,0.333333
251,4,8,0.333333
252,4,8,0.333333
253,4,8,0.333333
254,17,34,1.41667
255,4,8,0.333333
256,693,1386,57.75
257,994,1989,82.875
258,425,850,35.4167
259,2,4,0.166667
260,2,4,0.166667
261,2,4,0.166667
262,2,4,0.166667
263,2,4,0.166667
264,2,4,0.166667
265,2,4,0.166667
266,2,4,0.166667
267,2,4,0.166667
268,2,4,0.166667
269,2,4,0.166667
270,2,4,0.166667
271,2,4,0.166667
272,2,4,0.166667
273,2,4,0.166667
274,2,4,0.166667
275,2,4,0.166667
276,2,4,0.166667
277,2,4,0.166667
278,2,4,0.166667
279,2,4,0.166667
280,2,4,0.166667
281,2,4,0.166667
282,2,4,0.166667
283,2,4,0.166667
284,2,4,0.166667
285,2,4,0.166667
286,2,4,0.166667
287,2,4,0.166667
288,2,4,0.166667
289,2,4,0.166667
290,2,4,0.166667
291,2,4,0.166667
292,2,4,0.166667
293,2,4,0.166667
294,2,4,0.166667
295,2,4,0.166667
296,2,4,0.166667
297,2,4,0.166667
298,2,4,0.166667
299,2,4,0.166667
300,2,4,0.166667
301,2,4,0.166667
302,2,4,0.166667
303,2,4,0.166667
304,2,4,0.166667
305,2,4,0.166667
306,2,4,0.166667
307,2,4,0.166667
308,2,4,0.166667
309,2,4,0.166667
310,2,4,0.166667
311,2,4,0.166667
312,2,4,0.166667
313,2,4,0.166667
314,2,4,0.166667
315,2,4,0.166667
316,2,4,0.166667
317,2,4,0.166667
318,2,4,0.166667
319,2,4,0.166667
320,2,4,0.166667
321,2,4,0.166667
322,2,4,0.166667
323,2,4,0.166667
324,2,4,0.166667
325,2,4,0.166667
326,2,4,0.166667
327,2,4,0.166667
328,2,4,0.166667
329,2,4,0.166667
330,2,4,0.166667
331,2,4,0.166667
332,2,4,0.166667
333,2,4,0.166667
334,3,6,0.25
335,2,4,0.166667
336,2,4,0.166667
337,2,4,0.166667
338,2,4,0.166667
339,2,4,0.166667
340,2,4,0.166667
341,2,4,0.166667
342,2,4,0.166667
343,2,4,0.166667
344,2,4,0.166667
345,2,4,0.166667
346,2,4,0.166667
347,2,4,0.166667
348,2,4,0.166667
349,2,4,0.166667
350,2,4,0.166667
351,2,4,0.166667
352,2,4,0.166667
353,2,4,0.166667
354,2,4,0.166667
355,2,4,0.166667
356,2,4,0.166667
357,2,4,0.166667
358,2,4,0.166667
359,2,4,0.166667
360,2,4,0.166667
361,2,4,0.166667
362,2,4,0.166667
363,2,4,0.166667
364,2,4,0.166667
365,2,4,0.166667
366,2,4,0.166667
367,2,4,0.166667
368,2,4,0.166667
369,2,4,0.166667
370,2,4,0.166667
371,2,4,0.166667
372,2,4,0.166667
373,2,4,0.166667
374,2,4,0.166667
375,2,4,0.166667
376,2,4,0.166667
377,2,4,0.166667
378,2,4,0.166667
379,2,4,0.166667
380,2,4,0.166667
381,2,4,0.166667
382,2,4,0.166667
383,2,4,0.166667
384,2,4,0.166667
385,2,4,0.166667
386,2,4,0.166667
387,2,4,0.166667
388,2,4,0.166667
389,2,4,0.166667
390,2,4,0.166667
391,2,4,0.166667
392,2,4,0.166667
393,2,4,0.166667
394,2,4,0.166667
395,2,4,0.166667
396,2,4,0.166667
397,2,4,0.166667
398,2,4,0.166667
399,2,4,0.166667
400,2,4,0.166667
401,2,4,0.166667
402,2,4,0.166667
403,2,4,0.166667
404,2,4,0.166667
405,2,4,0.166667
406,2,4,0.166667
407,2,4,0.166667
408,2,4,0.166667
409,2,4,0.166667
410,2,4,0.166667
411,2,4,0.166667
412,2,4,0.166667
413,2,4,0.166667
414,2,4,0.166667
415,2,4,0.166667
416,2,4,0.166667
417,2,4,0.166667
418,2,4,0.166667
419,2,4,0.166667
420,2,4,0.166667
421,2,4,0.166667
422,2,4,0.166667
423,2,4,0.166667
424,2,4,0.166667
425,2,4,0.166667
426,2,4,0.166667
427,2,4,0.166667
428,2,4,0.166667
429,2,4,0.166667
430,2,4,0.166667
431,2,4,0.166667
432,2,4,0.166667
433,2,4,0.166667
434,2,4,0.166667
435,2,4,0.166667
436,2,4,0.166667
437,2,4,0.166667
438,2,4,0.166667
439,2,4,0.166667
440,2,4,0.166667
441,2,4,0.166667
442,2,4,0.166667
443,2,4,0.166667
444,2,4,0.166667
445,2,4,0.166667
446,2,4,0.166667
447,2,4,0.166667
448,2,4,0.166667
449,2,4,0.166667
450,2,4,0.166667
451,2,4,0.166667
452,2,4,0.166667
453,2,4,0.166667
454,2,4,0.166667
455,2,4,0.166667
456,2,4,0.166667
457,2,4,0.166667
458,2,4,0.166667
459,2,4,0.166667
460,2,4,0.166667
461,2,4,0.166667
462,2,4,0.166667
463,2,4,0.166667
464,2,4,0.166667
465,2,4,0.166667
466,2,4,0.166667
467,2,4,0.166667
468,2,4,0.166667
469,2,4,0.166667
470,2,4,0.166667
471,2,4,0.166667
472,2,4,0.166667
473,2,4,0.166667
474,2,4,0.166667
475,2,4,0.166667
476,2,4,0.166667
477,2,4,0.166667
478,2,4,0.166667
479,2,4,0.166667
480,2,4,0.166667
481,2,4,0.166667
482,2,4,0.166667
483,2,4,0.166667
484,2,4,0.166667
485,2,4,0.166667
486,2,4,0.166667
487,2,4,0.166667
488,2,4,0.166667
489,2,4,0.166667
490,2,4,0.166667
491,2,4,0.166667
492,2,4,0.166667
493,2,4,0.166667
494,2,4,0.166667
495,2,4,0.166667
496,2,4,0.166667
497,2,4,0.166667
498,2,4,0.166667
499,2,4,0.166667
500,2,4,0.166667
501,2,4,0.166667
502,2,4,0.166667
503,2,4,0.166667
504,2,4,0.166667
505,2,4,0.166667
506,2,4,0.166667
507,2,4,0.166667
508,2,4,0.166667
509,2,4,0.166667
510,2,4,0.166667
511,2,4,0.166667
workloadGranularity,avgTotalDD,maxTotalDDLevel,maxTotalDD, avg. # of rows per level,avg. # of nnzs per level
191.117,6.70898,21.5996,0.0222169,1953.13,4586.8
NUM_THREADS:,24
CACHE_LINE:,64

thread workLoads & communication costs
0,1,2,3,4,5,6,7,8,9,10,11,12,13,14,15,16,17,18,19,20,21,22,23
99354,98346,98178,97903,97860,97838,97816,97811,97806,97796,97796,97796,97796,97796,97796,97796,97796,97796,97796,97796,97790,97767,97755,96462,
11041,34534,42931,48044,49625,51044,47934,48480,50755,49068,48504,50669,52025,52791,53292,49055,49817,52092,48943,50415,51921,49560,48718,44727,
stdev:,437.861
avgTotalDDThread:,1.83333
maxDD:,3
numOfThreadsUsed:,24


