level,# of rows,sum of NNZs,NNZs per HW thread
0,29105,29105,1212.71
1,1,2,0.0833333
2,2,5,0.208333
3,3,7,0.291667
4,5,17,0.708333
5,6,21,0.875
6,6,24,1
7,7,29,1.20833
8,7,26,1.08333
9,6,26,1.08333
10,6,30,1.25
11,7,38,1.58333
12,7,36,1.5
13,8,48,2
14,10,48,2
15,11,55,2.29167
16,14,74,3.08333
17,11,59,2.45833
18,12,58,2.41667
19,12,63,2.625
20,16,82,3.41667
21,14,79,3.29167
22,13,82,3.41667
23,13,80,3.33333
24,14,90,3.75
25,12,71,2.95833
26,13,75,3.125
27,13,73,3.04167
28,15,87,3.625
29,11,70,2.91667
30,15,96,4
31,12,86,3.58333
32,14,94,3.91667
33,9,63,2.625
34,14,89,3.70833
35,16,107,4.45833
36,15,101,4.20833
37,16,97,4.04167
38,17,105,4.375
39,16,92,3.83333
40,15,101,4.20833
41,12,70,2.91667
42,14,87,3.625
43,16,102,4.25
44,14,92,3.83333
45,15,100,4.16667
46,14,91,3.79167
47,18,116,4.83333
48,18,125,5.20833
49,18,126,5.25
50,19,121,5.04167
51,24,165,6.875
52,28,177,7.375
53,27,178,7.41667
54,25,174,7.25
55,20,138,5.75
56,22,155,6.45833
57,22,147,6.125
58,19,138,5.75
59,18,122,5.08333
60,16,117,4.875
61,17,120,5
62,18,120,5
63,20,130,5.41667
64,20,131,5.45833
65,20,135,5.625
66,22,149,6.20833
67,26,163,6.79167
68,26,162,6.75
69,27,162,6.75
70,24,161,6.70833
71,23,163,6.79167
72,25,160,6.66667
73,29,195,8.125
74,30,196,8.16667
75,28,180,7.5
76,33,223,9.29167
77,40,276,11.5
78,42,281,11.7083
79,45,301,12.5417
80,42,281,11.7083
81,37,264,11
82,35,245,10.2083
83,33,227,9.45833
84,39,268,11.1667
85,42,288,12
86,41,301,12.5417
87,44,300,12.5
88,40,284,11.8333
89,48,330,13.75
90,45,319,13.2917
91,43,294,12.25
92,41,276,11.5
93,42,288,12
94,39,275,11.4583
95,47,320,13.3333
96,47,319,13.2917
97,47,327,13.625
98,41,284,11.8333
99,41,276,11.5
100,38,279,11.625
101,40,283,11.7917
102,44,285,11.875
103,46,302,12.5833
104,45,311,12.9583
105,51,365,15.2083
106,49,349,14.5417
107,46,329,13.7083
108,46,329,13.7083
109,46,342,14.25
110,54,393,16.375
111,54,381,15.875
112,59,426,17.75
113,57,402,16.75
114,64,464,19.3333
115,66,466,19.4167
116,66,482,20.0833
117,65,474,19.75
118,57,421,17.5417
119,55,394,16.4167
120,57,429,17.875
121,52,362,15.0833
122,54,386,16.0833
123,58,410,17.0833
124,58,408,17
125,57,409,17.0417
126,61,423,17.625
127,65,466,19.4167
128,61,432,18
129,64,454,18.9167
130,63,461,19.2083
131,66,464,19.3333
132,68,486,20.25
133,76,532,22.1667
134,79,541,22.5417
135,80,567,23.625
136,74,521,21.7083
137,80,559,23.2917
138,76,527,21.9583
139,75,546,22.75
140,74,532,22.1667
141,78,553,23.0417
142,76,548,22.8333
143,73,534,22.25
144,77,530,22.0833
145,77,534,22.25
146,81,561,23.375
147,80,551,22.9583
148,79,539,22.4583
149,84,598,24.9167
150,83,578,24.0833
151,88,611,25.4583
152,92,675,28.125
153,102,725,30.2083
154,96,695,28.9583
155,89,659,27.4583
156,90,653,27.2083
157,80,587,24.4583
158,84,611,25.4583
159,83,595,24.7917
160,81,603,25.125
161,74,532,22.1667
162,72,522,21.75
163,70,509,21.2083
164,68,493,20.5417
165,71,514,21.4167
166,73,523,21.7917
167,75,540,22.5
168,84,599,24.9583
169,80,560,23.3333
170,83,603,25.125
171,89,631,26.2917
172,95,681,28.375
173,91,655,27.2917
174,85,630,26.25
175,91,666,27.75
176,95,677,28.2083
177,98,688,28.6667
178,99,705,29.375
179,108,770,32.0833
180,107,762,31.75
181,107,774,32.25
182,102,730,30.4167
183,105,755,31.4583
184,102,702,29.25
185,106,767,31.9583
186,108,772,32.1667
187,103,731,30.4583
188,103,737,30.7083
189,102,741,30.875
190,109,796,33.1667
191,113,806,33.5833
192,119,884,36.8333
193,121,879,36.625
194,117,867,36.125
195,126,877,36.5417
196,126,885,36.875
197,135,951,39.625
198,125,876,36.5
199,118,854,35.5833
200,117,817,34.0417
201,122,870,36.25
202,123,864,36
203,138,965,40.2083
204,136,957,39.875
205,140,1008,42
206,136,966,40.25
207,141,1015,42.2917
208,141,1028,42.8333
209,143,1028,42.8333
210,141,989,41.2083
211,135,965,40.2083
212,123,875,36.4583
213,128,936,39
214,132,938,39.0833
215,130,952,39.6667
216,140,1007,41.9583
217,147,1060,44.1667
218,158,1136,47.3333
219,152,1072,44.6667
220,140,1003,41.7917
221,150,1073,44.7083
222,149,1065,44.375
223,151,1103,45.9583
224,155,1129,47.0417
225,163,1164,48.5
226,160,1123,46.7917
227,157,1105,46.0417
228,156,1119,46.625
229,157,1122,46.75
230,155,1113,46.375
231,160,1139,47.4583
232,157,1133,47.2083
233,160,1144,47.6667
234,161,1172,48.8333
235,163,1138,47.4167
236,159,1118,46.5833
237,163,1176,49
238,150,1084,45.1667
239,157,1139,47.4583
240,165,1174,48.9167
241,164,1126,46.9167
242,164,1152,48
243,164,1154,48.0833
244,171,1167,48.625
245,177,1259,52.4583
246,175,1239,51.625
247,169,1199,49.9583
248,187,1351,56.2917
249,184,1332,55.5
250,194,1365,56.875
251,187,1330,55.4167
252,188,1346,56.0833
253,181,1329,55.375
254,192,1361,56.7083
255,170,1206,50.25
256,180,1257,52.375
257,178,1279,53.2917
258,192,1355,56.4583
259,192,1375,57.2917
260,199,1409,58.7083
261,189,1377,57.375
262,193,1371,57.125
263,202,1439,59.9583
264,205,1452,60.5
265,197,1425,59.375
266,185,1368,57
267,203,1478,61.5833
268,201,1446,60.25
269,203,1452,60.5
270,196,1431,59.625
271,202,1470,61.25
272,217,1588,66.1667
273,215,1554,64.75
274,218,1565,65.2083
275,220,1588,66.1667
276,204,1489,62.0417
277,209,1517,63.2083
278,212,1517,63.2083
279,218,1548,64.5
280,218,1542,64.25
281,216,1553,64.7083
282,213,1516,63.1667
283,214,1543,64.2917
284,223,1558,64.9167
285,218,1590,66.25
286,211,1512,63
287,202,1440,60
288,209,1512,63
289,205,1481,61.7083
290,218,1564,65.1667
291,220,1576,65.6667
292,231,1655,68.9583
293,241,1739,72.4583
294,234,1703,70.9583
295,240,1769,73.7083
296,249,1799,74.9583
297,253,1817,75.7083
298,267,1923,80.125
299,268,1921,80.0417
300,256,1828,76.1667
301,257,1846,76.9167
302,248,1777,74.0417
303,239,1714,71.4167
304,244,1766,73.5833
305,240,1777,74.0417
306,246,1773,73.875
307,258,1834,76.4167
308,256,1862,77.5833
309,269,1910,79.5833
310,280,1970,82.0833
311,273,1965,81.875
312,259,1885,78.5417
313,258,1886,78.5833
314,255,1832,76.3333
315,252,1816,75.6667
316,268,1973,82.2083
317,257,1888,78.6667
318,255,1878,78.25
319,253,1837,76.5417
320,247,1832,76.3333
321,246,1823,75.9583
322,267,1945,81.0417
323,251,1791,74.625
324,243,1777,74.0417
325,241,1773,73.875
326,241,1752,73
327,236,1685,70.2083
328,229,1678,69.9167
329,226,1684,70.1667
330,227,1677,69.875
331,246,1836,76.5
332,244,1767,73.625
333,251,1827,76.125
334,252,1827,76.125
335,248,1836,76.5
336,259,1870,77.9167
337,249,1819,75.7917
338,255,1898,79.0833
339,242,1787,74.4583
340,253,1875,78.125
341,241,1771,73.7917
342,249,1805,75.2083
343,242,1771,73.7917
344,244,1803,75.125
345,241,1790,74.5833
346,241,1798,74.9167
347,237,1786,74.4167
348,249,1880,78.3333
349,249,1864,77.6667
350,253,1881,78.375
351,252,1869,77.875
352,259,1936,80.6667
353,253,1881,78.375
354,245,1788,74.5
355,238,1764,73.5
356,231,1685,70.2083
357,212,1573,65.5417
358,195,1427,59.4583
359,187,1403,58.4583
360,189,1383,57.625
361,191,1402,58.4167
362,193,1432,59.6667
363,184,1378,57.4167
364,181,1352,56.3333
365,188,1363,56.7917
366,177,1314,54.75
367,166,1215,50.625
368,163,1199,49.9583
369,159,1171,48.7917
370,158,1160,48.3333
371,169,1236,51.5
372,160,1170,48.75
373,173,1309,54.5417
374,163,1213,50.5417
375,152,1121,46.7083
376,145,1052,43.8333
377,141,1020,42.5
378,138,1002,41.75
379,124,898,37.4167
380,109,816,34
381,116,884,36.8333
382,129,949,39.5417
383,128,953,39.7083
384,131,977,40.7083
385,136,971,40.4583
386,147,1084,45.1667
387,139,1009,42.0417
388,130,931,38.7917
389,139,997,41.5417
390,136,978,40.75
391,128,950,39.5833
392,137,993,41.375
393,137,993,41.375
394,131,982,40.9167
395,125,913,38.0417
396,128,972,40.5
397,124,913,38.0417
398,124,942,39.25
399,131,975,40.625
400,126,924,38.5
401,134,989,41.2083
402,126,916,38.1667
403,118,867,36.125
404,130,989,41.2083
405,131,970,40.4167
406,136,1025,42.7083
407,139,1038,43.25
408,135,1010,42.0833
409,136,1018,42.4167
410,140,1036,43.1667
411,129,970,40.4167
412,129,953,39.7083
413,118,875,36.4583
414,123,908,37.8333
415,120,885,36.875
416,124,919,38.2917
417,125,954,39.75
418,125,947,39.4583
419,122,946,39.4167
420,131,978,40.75
421,127,945,39.375
422,123,942,39.25
423,129,975,40.625
424,135,991,41.2917
425,141,1046,43.5833
426,136,986,41.0833
427,132,981,40.875
428,123,887,36.9583
429,112,841,35.0417
430,115,848,35.3333
431,116,874,36.4167
432,117,857,35.7083
433,119,898,37.4167
434,110,807,33.625
435,119,937,39.0417
436,115,835,34.7917
437,113,828,34.5
438,115,856,35.6667
439,107,801,33.375
440,108,793,33.0417
441,112,829,34.5417
442,113,799,33.2917
443,103,758,31.5833
444,108,815,33.9583
445,107,832,34.6667
446,100,749,31.2083
447,96,721,30.0417
448,95,721,30.0417
449,93,712,29.6667
450,91,664,27.6667
451,87,641,26.7083
452,82,612,25.5
453,78,561,23.375
454,77,561,23.375
455,80,593,24.7083
456,79,600,25
457,80,592,24.6667
458,83,601,25.0417
459,80,584,24.3333
460,82,615,25.625
461,85,666,27.75
462,88,641,26.7083
463,81,602,25.0833
464,83,610,25.4167
465,89,627,26.125
466,82,604,25.1667
467,91,651,27.125
468,81,583,24.2917
469,75,534,22.25
470,72,521,21.7083
471,69,487,20.2917
472,66,475,19.7917
473,63,449,18.7083
474,61,444,18.5
475,60,442,18.4167
476,68,509,21.2083
477,62,494,20.5833
478,64,492,20.5
479,66,486,20.25
480,57,453,18.875
481,58,438,18.25
482,56,443,18.4583
483,61,471,19.625
484,63,474,19.75
485,65,503,20.9583
486,68,521,21.7083
487,70,519,21.625
488,68,516,21.5
489,74,544,22.6667
490,73,553,23.0417
491,73,570,23.75
492,68,534,22.25
493,64,489,20.375
494,57,433,18.0417
495,53,426,17.75
496,55,426,17.75
497,55,437,18.2083
498,61,471,19.625
499,60,473,19.7083
500,67,512,21.3333
501,65,507,21.125
502,71,532,22.1667
503,63,479,19.9583
504,68,530,22.0833
505,67,507,21.125
506,73,587,24.4583
507,69,538,22.4167
508,60,476,19.8333
509,57,462,19.25
510,55,441,18.375
511,52,406,16.9167
512,59,473,19.7083
513,54,408,17
514,61,480,20
515,60,468,19.5
516,57,443,18.4583
517,60,446,18.5833
518,62,473,19.7083
519,63,474,19.75
520,65,494,20.5833
521,60,457,19.0417
522,66,513,21.375
523,57,423,17.625
524,60,447,18.625
525,49,362,15.0833
526,55,418,17.4167
527,42,317,13.2083
528,40,298,12.4167
529,37,290,12.0833
530,38,290,12.0833
531,35,257,10.7083
532,29,221,9.20833
533,29,225,9.375
534,27,202,8.41667
535,29,208,8.66667
536,29,230,9.58333
537,29,219,9.125
538,28,214,8.91667
539,31,230,9.58333
540,31,233,9.70833
541,32,235,9.79167
542,34,266,11.0833
543,33,256,10.6667
544,32,245,10.2083
545,31,245,10.2083
546,35,287,11.9583
547,29,217,9.04167
548,34,261,10.875
549,36,265,11.0417
550,34,263,10.9583
551,33,245,10.2083
552,33,252,10.5
553,34,255,10.625
554,32,232,9.66667
555,29,215,8.95833
556,27,218,9.08333
557,23,182,7.58333
558,24,175,7.29167
559,25,181,7.54167
560,20,156,6.5
561,18,142,5.91667
562,17,124,5.16667
563,18,135,5.625
564,16,117,4.875
565,17,131,5.45833
566,16,129,5.375
567,12,101,4.20833
568,10,73,3.04167
569,14,112,4.66667
570,14,112,4.66667
571,15,118,4.91667
572,11,91,3.79167
573,12,91,3.79167
574,13,109,4.54167
575,18,133,5.54167
576,22,177,7.375
577,27,218,9.08333
578,25,197,8.20833
579,29,223,9.29167
580,31,240,10
581,27,214,8.91667
582,26,204,8.5
583,29,245,10.2083
584,32,252,10.5
585,29,220,9.16667
586,26,209,8.70833
587,28,206,8.58333
588,30,240,10
589,30,237,9.875
590,29,227,9.45833
591,34,274,11.4167
592,30,234,9.75
593,32,241,10.0417
594,30,231,9.625
595,33,250,10.4167
596,29,223,9.29167
597,34,247,10.2917
598,33,254,10.5833
599,41,319,13.2917
600,44,328,13.6667
601,42,317,13.2083
602,41,310,12.9167
603,47,345,14.375
604,44,323,13.4583
605,53,389,16.2083
606,57,463,19.2917
607,61,463,19.2917
608,64,506,21.0833
609,65,487,20.2917
610,67,503,20.9583
611,73,546,22.75
612,74,563,23.4583
613,72,563,23.4583
614,68,502,20.9167
615,70,518,21.5833
616,70,526,21.9167
617,75,545,22.7083
618,70,524,21.8333
619,67,498,20.75
620,59,442,18.4167
621,61,462,19.25
622,54,406,16.9167
623,50,375,15.625
624,47,357,14.875
625,47,358,14.9167
626,42,339,14.125
627,42,314,13.0833
628,42,314,13.0833
629,46,335,13.9583
630,46,368,15.3333
631,47,370,15.4167
632,53,436,18.1667
633,48,373,15.5417
634,49,380,15.8333
635,44,346,14.4167
636,50,388,16.1667
637,39,280,11.6667
638,51,369,15.375
639,48,373,15.5417
640,51,384,16
641,44,329,13.7083
642,47,354,14.75
643,50,394,16.4167
644,45,348,14.5
645,42,334,13.9167
646,45,345,14.375
647,41,314,13.0833
648,42,308,12.8333
649,39,287,11.9583
650,45,341,14.2083
651,49,378,15.75
652,46,353,14.7083
653,45,334,13.9167
654,41,314,13.0833
655,44,344,14.3333
656,41,336,14
657,35,267,11.125
658,41,328,13.6667
659,36,264,11
660,38,301,12.5417
661,36,282,11.75
662,39,314,13.0833
663,35,283,11.7917
664,32,250,10.4167
665,29,223,9.29167
666,33,249,10.375
667,32,231,9.625
668,38,301,12.5417
669,36,274,11.4167
670,34,260,10.8333
671,40,313,13.0417
672,41,327,13.625
673,45,352,14.6667
674,45,347,14.4583
675,41,355,14.7917
676,39,300,12.5
677,40,304,12.6667
678,38,301,12.5417
679,38,308,12.8333
680,41,314,13.0833
681,40,308,12.8333
682,41,324,13.5
683,36,282,11.75
684,40,310,12.9167
685,45,356,14.8333
686,44,341,14.2083
687,39,322,13.4167
688,37,295,12.2917
689,36,271,11.2917
690,41,316,13.1667
691,44,345,14.375
692,44,349,14.5417
693,46,354,14.75
694,49,379,15.7917
695,51,387,16.125
696,53,399,16.625
697,49,362,15.0833
698,44,342,14.25
699,46,349,14.5417
700,44,340,14.1667
701,41,309,12.875
702,47,360,15
703,49,365,15.2083
704,49,378,15.75
705,48,365,15.2083
706,47,353,14.7083
707,51,407,16.9583
708,54,426,17.75
709,47,378,15.75
710,54,418,17.4167
711,58,443,18.4583
712,62,482,20.0833
713,68,521,21.7083
714,68,540,22.5
715,76,553,23.0417
716,84,624,26
717,83,615,25.625
718,88,673,28.0417
719,93,688,28.6667
720,98,762,31.75
721,91,669,27.875
722,97,722,30.0833
723,85,625,26.0417
724,96,710,29.5833
725,90,701,29.2083
726,99,751,31.2917
727,81,621,25.875
728,80,628,26.1667
729,81,624,26
730,81,611,25.4583
731,79,592,24.6667
732,69,527,21.9583
733,75,563,23.4583
734,74,571,23.7917
735,80,590,24.5833
736,81,606,25.25
737,84,626,26.0833
738,81,599,24.9583
739,78,599,24.9583
740,78,567,23.625
741,84,644,26.8333
742,85,657,27.375
743,80,603,25.125
744,82,595,24.7917
745,92,695,28.9583
746,86,655,27.2917
747,86,641,26.7083
748,83,626,26.0833
749,78,576,24
750,91,709,29.5417
751,99,728,30.3333
752,96,712,29.6667
753,95,687,28.625
754,101,764,31.8333
755,106,754,31.4167
756,105,771,32.125
757,111,831,34.625
758,113,828,34.5
759,116,855,35.625
760,117,871,36.2917
761,115,844,35.1667
762,124,907,37.7917
763,119,881,36.7083
764,129,951,39.625
765,126,940,39.1667
766,125,912,38
767,121,897,37.375
768,123,885,36.875
769,123,897,37.375
770,119,853,35.5417
771,125,924,38.5
772,122,873,36.375
773,125,894,37.25
774,109,779,32.4583
775,117,848,35.3333
776,117,830,34.5833
777,101,717,29.875
778,100,718,29.9167
779,92,681,28.375
780,96,699,29.125
781,94,664,27.6667
782,84,587,24.4583
783,92,682,28.4167
784,90,658,27.4167
785,91,674,28.0833
786,89,661,27.5417
787,91,688,28.6667
788,96,705,29.375
789,91,671,27.9583
790,93,701,29.2083
791,91,692,28.8333
792,102,777,32.375
793,107,810,33.75
794,106,794,33.0833
795,111,843,35.125
796,109,797,33.2083
797,110,799,33.2917
798,108,824,34.3333
799,111,835,34.7917
800,113,852,35.5
801,119,886,36.9167
802,130,947,39.4583
803,124,944,39.3333
804,125,943,39.2917
805,121,918,38.25
806,124,924,38.5
807,115,849,35.375
808,109,839,34.9583
809,115,858,35.75
810,116,864,36
811,114,876,36.5
812,101,767,31.9583
813,104,815,33.9583
814,116,905,37.7083
815,120,920,38.3333
816,129,971,40.4583
817,137,1035,43.125
818,148,1133,47.2083
819,136,997,41.5417
820,144,1110,46.25
821,138,1053,43.875
822,143,1085,45.2083
823,151,1145,47.7083
824,137,1066,44.4167
825,139,1052,43.8333
826,131,1036,43.1667
827,135,1056,44
828,132,1044,43.5
829,137,1030,42.9167
830,134,1051,43.7917
831,135,1021,42.5417
832,125,953,39.7083
833,118,905,37.7083
834,123,938,39.0833
835,127,963,40.125
836,118,891,37.125
837,127,960,40
838,122,936,39
839,127,958,39.9167
840,117,906,37.75
841,118,888,37
842,107,813,33.875
843,112,833,34.7083
844,105,763,31.7917
845,113,843,35.125
846,118,886,36.9167
847,112,832,34.6667
848,103,769,32.0417
849,108,795,33.125
850,114,869,36.2083
851,117,899,37.4583
852,108,833,34.7083
853,106,833,34.7083
854,105,784,32.6667
855,105,805,33.5417
856,117,886,36.9167
857,112,842,35.0833
858,112,865,36.0417
859,108,849,35.375
860,113,852,35.5
861,108,838,34.9167
862,101,778,32.4167
863,98,725,30.2083
864,93,695,28.9583
865,94,717,29.875
866,95,696,29
867,104,777,32.375
868,100,761,31.7083
869,105,792,33
870,103,789,32.875
871,106,802,33.4167
872,107,843,35.125
873,107,818,34.0833
874,105,813,33.875
875,107,825,34.375
876,113,876,36.5
877,116,853,35.5417
878,117,898,37.4167
879,122,920,38.3333
880,123,942,39.25
881,116,869,36.2083
882,113,858,35.75
883,127,950,39.5833
884,144,1092,45.5
885,132,983,40.9583
886,135,1023,42.625
887,143,1062,44.25
888,148,1107,46.125
889,153,1156,48.1667
890,148,1115,46.4583
891,140,1036,43.1667
892,151,1100,45.8333
893,156,1150,47.9167
894,165,1214,50.5833
895,154,1161,48.375
896,162,1215,50.625
897,168,1274,53.0833
898,162,1228,51.1667
899,158,1181,49.2083
900,156,1209,50.375
901,168,1246,51.9167
902,179,1351,56.2917
903,180,1316,54.8333
904,177,1351,56.2917
905,169,1230,51.25
906,182,1367,56.9583
907,192,1438,59.9167
908,195,1459,60.7917
909,186,1409,58.7083
910,181,1364,56.8333
911,189,1373,57.2083
912,176,1296,54
913,189,1417,59.0417
914,194,1464,61
915,190,1440,60
916,202,1472,61.3333
917,214,1606,66.9167
918,216,1603,66.7917
919,224,1679,69.9583
920,216,1618,67.4167
921,213,1582,65.9167
922,219,1604,66.8333
923,213,1541,64.2083
924,218,1616,67.3333
925,221,1602,66.75
926,227,1669,69.5417
927,210,1553,64.7083
928,213,1596,66.5
929,220,1642,68.4167
930,223,1642,68.4167
931,225,1644,68.5
932,230,1764,73.5
933,227,1692,70.5
934,236,1727,71.9583
935,230,1680,70
936,255,1914,79.75
937,242,1785,74.375
938,250,1928,80.3333
939,251,1860,77.5
940,250,1899,79.125
941,247,1822,75.9167
942,243,1802,75.0833
943,240,1789,74.5417
944,244,1769,73.7083
945,244,1795,74.7917
946,266,1949,81.2083
947,254,1870,77.9167
948,264,1958,81.5833
949,266,1980,82.5
950,268,1967,81.9583
951,247,1800,75
952,256,1903,79.2917
953,256,1860,77.5
954,244,1800,75
955,226,1664,69.3333
956,221,1643,68.4583
957,212,1606,66.9167
958,224,1631,67.9583
959,222,1687,70.2917
960,223,1650,68.75
961,223,1651,68.7917
962,222,1665,69.375
963,212,1587,66.125
964,219,1644,68.5
965,214,1614,67.25
966,216,1593,66.375
967,202,1492,62.1667
968,204,1518,63.25
969,205,1494,62.25
970,197,1457,60.7083
971,198,1494,62.25
972,200,1494,62.25
973,199,1450,60.4167
974,182,1332,55.5
975,180,1328,55.3333
976,172,1325,55.2083
977,168,1262,52.5833
978,170,1267,52.7917
979,163,1213,50.5417
980,163,1212,50.5
981,155,1155,48.125
982,155,1185,49.375
983,167,1262,52.5833
984,166,1238,51.5833
985,160,1182,49.25
986,166,1206,50.25
987,154,1123,46.7917
988,163,1224,51
989,165,1210,50.4167
990,165,1229,51.2083
991,161,1186,49.4167
992,159,1197,49.875
993,178,1330,55.4167
994,183,1388,57.8333
995,187,1430,59.5833
996,173,1286,53.5833
997,176,1282,53.4167
998,181,1338,55.75
999,179,1359,56.625
1000,175,1289,53.7083
1001,180,1324,55.1667
1002,177,1287,53.625
1003,194,1434,59.75
1004,194,1435,59.7917
1005,203,1492,62.1667
1006,195,1464,61
1007,185,1354,56.4167
1008,184,1390,57.9167
1009,187,1379,57.4583
1010,180,1310,54.5833
1011,187,1350,56.25
1012,178,1295,53.9583
1013,173,1253,52.2083
1014,170,1237,51.5417
1015,176,1242,51.75
1016,182,1328,55.3333
1017,180,1324,55.1667
1018,173,1230,51.25
1019,184,1382,57.5833
1020,182,1384,57.6667
1021,186,1387,57.7917
1022,194,1414,58.9167
1023,204,1533,63.875
1024,200,1480,61.6667
1025,202,1528,63.6667
1026,193,1430,59.5833
1027,189,1394,58.0833
1028,197,1481,61.7083
1029,205,1515,63.125
1030,206,1515,63.125
1031,208,1546,64.4167
1032,210,1571,65.4583
1033,207,1522,63.4167
1034,202,1472,61.3333
1035,193,1443,60.125
1036,197,1448,60.3333
1037,192,1428,59.5
1038,186,1370,57.0833
1039,170,1290,53.75
1040,163,1222,50.9167
1041,174,1335,55.625
1042,173,1292,53.8333
1043,174,1343,55.9583
1044,168,1240,51.6667
1045,166,1265,52.7083
1046,162,1234,51.4167
1047,158,1190,49.5833
1048,158,1192,49.6667
1049,154,1112,46.3333
1050,148,1124,46.8333
1051,156,1177,49.0417
1052,159,1246,51.9167
1053,158,1195,49.7917
1054,154,1145,47.7083
1055,154,1156,48.1667
1056,159,1207,50.2917
1057,163,1238,51.5833
1058,165,1264,52.6667
1059,150,1153,48.0417
1060,147,1123,46.7917
1061,155,1169,48.7083
1062,149,1111,46.2917
1063,140,1090,45.4167
1064,131,1015,42.2917
1065,121,920,38.3333
1066,121,886,36.9167
1067,120,888,37
1068,117,862,35.9167
1069,118,880,36.6667
1070,121,935,38.9583
1071,116,879,36.625
1072,120,898,37.4167
1073,124,946,39.4167
1074,120,907,37.7917
1075,104,798,33.25
1076,103,776,32.3333
1077,101,770,32.0833
1078,94,734,30.5833
1079,105,802,33.4167
1080,106,817,34.0417
1081,114,869,36.2083
1082,110,830,34.5833
1083,107,788,32.8333
1084,101,754,31.4167
1085,100,783,32.625
1086,104,783,32.625
1087,108,823,34.2917
1088,104,787,32.7917
1089,108,824,34.3333
1090,104,796,33.1667
1091,104,814,33.9167
1092,99,749,31.2083
1093,94,711,29.625
1094,102,775,32.2917
1095,99,759,31.625
1096,89,688,28.6667
1097,93,694,28.9167
1098,93,690,28.75
1099,99,742,30.9167
1100,100,774,32.25
1101,101,772,32.1667
1102,94,704,29.3333
1103,88,654,27.25
1104,83,635,26.4583
1105,84,633,26.375
1106,79,659,27.4583
1107,77,580,24.1667
1108,71,547,22.7917
1109,71,547,22.7917
1110,63,493,20.5417
1111,72,556,23.1667
1112,69,531,22.125
1113,75,560,23.3333
1114,69,518,21.5833
1115,66,495,20.625
1116,68,518,21.5833
1117,72,541,22.5417
1118,67,535,22.2917
1119,69,541,22.5417
1120,75,572,23.8333
1121,71,548,22.8333
1122,75,575,23.9583
1123,83,644,26.8333
1124,91,697,29.0417
1125,90,690,28.75
1126,87,687,28.625
1127,96,708,29.5
1128,98,730,30.4167
1129,98,732,30.5
1130,105,819,34.125
1131,104,770,32.0833
1132,98,762,31.75
1133,100,747,31.125
1134,104,797,33.2083
1135,107,800,33.3333
1136,105,807,33.625
1137,106,805,33.5417
1138,114,858,35.75
1139,127,937,39.0417
1140,122,928,38.6667
1141,135,1021,42.5417
1142,134,1026,42.75
1143,140,1080,45
1144,156,1193,49.7083
1145,160,1208,50.3333
1146,168,1259,52.4583
1147,176,1327,55.2917
1148,177,1338,55.75
1149,181,1403,58.4583
1150,190,1444,60.1667
1151,186,1442,60.0833
1152,196,1513,63.0417
1153,194,1471,61.2917
1154,199,1515,63.125
1155,211,1653,68.875
1156,215,1613,67.2083
1157,216,1638,68.25
1158,211,1586,66.0833
1159,217,1661,69.2083
1160,225,1705,71.0417
1161,242,1823,75.9583
1162,229,1711,71.2917
1163,236,1778,74.0833
1164,243,1822,75.9167
1165,259,1914,79.75
1166,257,1904,79.3333
1167,258,1927,80.2917
1168,272,2075,86.4583
1169,281,2082,86.75
1170,294,2204,91.8333
1171,296,2208,92
1172,308,2297,95.7083
1173,308,2294,95.5833
1174,305,2282,95.0833
1175,303,2307,96.125
1176,308,2325,96.875
1177,317,2427,101.125
1178,329,2531,105.458
1179,325,2467,102.792
1180,299,2288,95.3333
1181,305,2314,96.4167
1182,319,2435,101.458
1183,335,2539,105.792
1184,342,2574,107.25
1185,340,2511,104.625
1186,335,2504,104.333
1187,339,2553,106.375
1188,325,2455,102.292
1189,329,2482,103.417
1190,333,2469,102.875
1191,319,2424,101
1192,319,2394,99.75
1193,320,2445,101.875
1194,314,2367,98.625
1195,320,2421,100.875
1196,331,2496,104
1197,339,2549,106.208
1198,348,2608,108.667
1199,347,2613,108.875
1200,362,2699,112.458
1201,381,2887,120.292
1202,406,3111,129.625
1203,422,3184,132.667
1204,422,3230,134.583
1205,436,3277,136.542
1206,437,3287,136.958
1207,443,3355,139.792
1208,437,3303,137.625
1209,432,3278,136.583
1210,437,3327,138.625
1211,441,3351,139.625
1212,453,3421,142.542
1213,470,3510,146.25
1214,471,3529,147.042
1215,473,3566,148.583
1216,480,3558,148.25
1217,483,3605,150.208
1218,488,3656,152.333
1219,483,3641,151.708
1220,485,3640,151.667
1221,483,3717,154.875
1222,476,3609,150.375
1223,483,3692,153.833
1224,488,3692,153.833
1225,504,3845,160.208
1226,488,3638,151.583
1227,510,3807,158.625
1228,496,3693,153.875
1229,495,3661,152.542
1230,502,3728,155.333
1231,490,3663,152.625
1232,476,3572,148.833
1233,493,3682,153.417
1234,507,3786,157.75
1235,510,3779,157.458
1236,523,3940,164.167
1237,529,3960,165
1238,495,3753,156.375
1239,469,3483,145.125
1240,463,3522,146.75
1241,462,3423,142.625
1242,474,3531,147.125
1243,487,3600,150
1244,470,3533,147.208
1245,455,3404,141.833
1246,450,3365,140.208
1247,465,3456,144
1248,474,3510,146.25
1249,481,3601,150.042
1250,485,3640,151.667
1251,499,3819,159.125
1252,487,3648,152
1253,497,3747,156.125
1254,493,3675,153.125
1255,508,3866,161.083
1256,497,3711,154.625
1257,507,3799,158.292
1258,513,3815,158.958
1259,517,3834,159.75
1260,512,3826,159.417
1261,515,3805,158.542
1262,523,3841,160.042
1263,525,3931,163.792
1264,530,3987,166.125
1265,525,3879,161.625
1266,520,3844,160.167
1267,525,3959,164.958
1268,509,3802,158.417
1269,501,3770,157.083
1270,477,3595,149.792
1271,475,3558,148.25
1272,477,3557,148.208
1273,465,3484,145.167
1274,465,3500,145.833
1275,442,3306,137.75
1276,419,3158,131.583
1277,407,3016,125.667
1278,403,2991,124.625
1279,399,2995,124.792
1280,400,2984,124.333
1281,372,2797,116.542
1282,384,2891,120.458
1283,382,2850,118.75
1284,371,2789,116.208
1285,375,2808,117
1286,365,2684,111.833
1287,354,2646,110.25
1288,344,2566,106.917
1289,340,2525,105.208
1290,333,2528,105.333
1291,315,2374,98.9167
1292,318,2446,101.917
1293,314,2409,100.375
1294,328,2530,105.417
1295,332,2537,105.708
1296,323,2509,104.542
1297,320,2370,98.75
1298,316,2426,101.083
1299,332,2526,105.25
1300,331,2529,105.375
1301,336,2537,105.708
1302,335,2547,106.125
1303,334,2613,108.875
1304,349,2661,110.875
1305,360,2727,113.625
1306,349,2650,110.417
1307,353,2642,110.083
1308,360,2660,110.833
1309,362,2754,114.75
1310,351,2670,111.25
1311,354,2658,110.75
1312,339,2554,106.417
1313,346,2620,109.167
1314,340,2546,106.083
1315,314,2338,97.4167
1316,320,2477,103.208
1317,309,2290,95.4167
1318,305,2364,98.5
1319,310,2284,95.1667
1320,299,2247,93.625
1321,295,2193,91.375
1322,300,2261,94.2083
1323,306,2271,94.625
1324,306,2286,95.25
1325,296,2239,93.2917
1326,287,2148,89.5
1327,280,2098,87.4167
1328,268,2013,83.875
1329,264,2038,84.9167
1330,266,1995,83.125
1331,273,2074,86.4167
1332,271,2025,84.375
1333,275,2092,87.1667
1334,269,2034,84.75
1335,265,2046,85.25
1336,278,2094,87.25
1337,257,1990,82.9167
1338,255,1919,79.9583
1339,259,1967,81.9583
1340,270,2045,85.2083
1341,258,1976,82.3333
1342,260,1967,81.9583
1343,260,2009,83.7083
1344,256,1976,82.3333
1345,261,1970,82.0833
1346,268,2017,84.0417
1347,272,2096,87.3333
1348,271,2102,87.5833
1349,255,1994,83.0833
1350,268,2130,88.75
1351,270,2060,85.8333
1352,278,2159,89.9583
1353,285,2191,91.2917
1354,300,2308,96.1667
1355,290,2182,90.9167
1356,289,2247,93.625
1357,289,2229,92.875
1358,293,2268,94.5
1359,308,2392,99.6667
1360,301,2340,97.5
1361,321,2456,102.333
1362,329,2546,106.083
1363,331,2603,108.458
1364,331,2512,104.667
1365,325,2556,106.5
1366,333,2595,108.125
1367,343,2660,110.833
1368,350,2713,113.042
1369,326,2557,106.542
1370,325,2481,103.375
1371,330,2579,107.458
1372,329,2572,107.167
1373,320,2511,104.625
1374,315,2416,100.667
1375,309,2399,99.9583
1376,309,2355,98.125
1377,311,2418,100.75
1378,322,2501,104.208
1379,317,2442,101.75
1380,322,2498,104.083
1381,320,2453,102.208
1382,324,2555,106.458
1383,324,2474,103.083
1384,334,2600,108.333
1385,331,2556,106.5
1386,349,2687,111.958
1387,335,2566,106.917
1388,332,2602,108.417
1389,336,2613,108.875
1390,339,2641,110.042
1391,356,2698,112.417
1392,375,2892,120.5
1393,366,2809,117.042
1394,340,2567,106.958
1395,357,2763,115.125
1396,347,2618,109.083
1397,357,2735,113.958
1398,355,2711,112.958
1399,363,2789,116.208
1400,364,2788,116.167
1401,354,2715,113.125
1402,343,2647,110.292
1403,338,2556,106.5
1404,346,2622,109.25
1405,338,2565,106.875
1406,341,2664,111
1407,350,2730,113.75
1408,338,2595,108.125
1409,331,2553,106.375
1410,330,2569,107.042
1411,346,2676,111.5
1412,336,2610,108.75
1413,339,2608,108.667
1414,337,2615,108.958
1415,326,2542,105.917
1416,329,2513,104.708
1417,331,2577,107.375
1418,330,2537,105.708
1419,338,2623,109.292
1420,322,2472,103
1421,328,2506,104.417
1422,313,2413,100.542
1423,301,2368,98.6667
1424,293,2257,94.0417
1425,294,2293,95.5417
1426,306,2338,97.4167
1427,285,2208,92
1428,308,2356,98.1667
1429,315,2441,101.708
1430,314,2409,100.375
1431,316,2425,101.042
1432,329,2522,105.083
1433,334,2567,106.958
1434,345,2680,111.667
1435,326,2471,102.958
1436,334,2599,108.292
1437,308,2399,99.9583
1438,295,2244,93.5
1439,303,2366,98.5833
1440,321,2435,101.458
1441,327,2519,104.958
1442,330,2541,105.875
1443,332,2571,107.125
1444,327,2538,105.75
1445,337,2633,109.708
1446,333,2584,107.667
1447,332,2543,105.958
1448,328,2530,105.417
1449,341,2609,108.708
1450,353,2695,112.292
1451,353,2664,111
1452,366,2777,115.708
1453,364,2779,115.792
1454,355,2691,112.125
1455,354,2683,111.792
1456,365,2830,117.917
1457,367,2820,117.5
1458,371,2807,116.958
1459,370,2852,118.833
1460,376,2862,119.25
1461,391,2964,123.5
1462,404,3079,128.292
1463,407,3061,127.542
1464,410,3114,129.75
1465,432,3316,138.167
1466,431,3224,134.333
1467,458,3480,145
1468,451,3428,142.833
1469,433,3298,137.417
1470,435,3340,139.167
1471,451,3398,141.583
1472,469,3544,147.667
1473,489,3737,155.708
1474,494,3769,157.042
1475,497,3790,157.917
1476,498,3786,157.75
1477,496,3833,159.708
1478,521,3964,165.167
1479,510,3890,162.083
1480,516,3921,163.375
1481,507,3860,160.833
1482,498,3861,160.875
1483,458,3522,146.75
1484,458,3503,145.958
1485,461,3526,146.917
1486,465,3631,151.292
1487,438,3332,138.833
1488,446,3467,144.458
1489,438,3346,139.417
1490,425,3278,136.583
1491,424,3300,137.5
1492,435,3313,138.042
1493,435,3344,139.333
1494,434,3354,139.75
1495,441,3430,142.917
1496,425,3208,133.667
1497,409,3180,132.5
1498,413,3131,130.458
1499,415,3185,132.708
1500,393,2984,124.333
1501,410,3221,134.208
1502,406,3111,129.625
1503,416,3236,134.833
1504,412,3118,129.917
1505,414,3226,134.417
1506,386,2987,124.458
1507,379,2926,121.917
1508,375,2887,120.292
1509,379,2985,124.375
1510,369,2820,117.5
1511,380,2949,122.875
1512,372,2830,117.917
1513,365,2815,117.292
1514,351,2649,110.375
1515,344,2628,109.5
1516,355,2747,114.458
1517,359,2774,115.583
1518,358,2749,114.542
1519,347,2692,112.167
1520,349,2707,112.792
1521,334,2567,106.958
1522,323,2518,104.917
1523,338,2629,109.542
1524,329,2524,105.167
1525,319,2475,103.125
1526,307,2402,100.083
1527,317,2493,103.875
1528,326,2509,104.542
1529,322,2519,104.958
1530,301,2319,96.625
1531,294,2335,97.2917
1532,285,2232,93
1533,267,2076,86.5
1534,263,2052,85.5
1535,259,2030,84.5833
1536,249,1983,82.625
1537,259,2005,83.5417
1538,253,2040,85
1539,235,1808,75.3333
1540,236,1838,76.5833
1541,246,1902,79.25
1542,256,1992,83
1543,242,1895,78.9583
1544,252,1973,82.2083
1545,261,2049,85.375
1546,259,2065,86.0417
1547,260,2040,85
1548,259,2035,84.7917
1549,274,2188,91.1667
1550,255,1997,83.2083
1551,257,2020,84.1667
1552,249,1952,81.3333
1553,247,1889,78.7083
1554,258,2005,83.5417
1555,263,2039,84.9583
1556,270,2086,86.9167
1557,270,2148,89.5
1558,274,2090,87.0833
1559,273,2131,88.7917
1560,282,2168,90.3333
1561,291,2272,94.6667
1562,290,2249,93.7083
1563,297,2329,97.0417
1564,307,2406,100.25
1565,296,2359,98.2917
1566,293,2291,95.4583
1567,275,2129,88.7083
1568,269,2118,88.25
1569,262,2056,85.6667
1570,257,2017,84.0417
1571,247,1936,80.6667
1572,226,1799,74.9583
1573,213,1659,69.125
1574,222,1743,72.625
1575,241,1858,77.4167
1576,245,1902,79.25
1577,252,1968,82
1578,271,2131,88.7917
1579,277,2155,89.7917
1580,262,2034,84.75
1581,278,2192,91.3333
1582,273,2105,87.7083
1583,283,2215,92.2917
1584,288,2218,92.4167
1585,281,2205,91.875
1586,294,2258,94.0833
1587,286,2240,93.3333
1588,284,2198,91.5833
1589,274,2108,87.8333
1590,283,2240,93.3333
1591,289,2249,93.7083
1592,286,2234,93.0833
1593,305,2376,99
1594,300,2371,98.7917
1595,288,2246,93.5833
1596,271,2154,89.75
1597,269,2096,87.3333
1598,309,2410,100.417
1599,308,2414,100.583
1600,322,2527,105.292
1601,322,2494,103.917
1602,332,2608,108.667
1603,328,2557,106.542
1604,329,2566,106.917
1605,349,2753,114.708
1606,340,2710,112.917
1607,335,2649,110.375
1608,346,2728,113.667
1609,356,2843,118.458
1610,359,2871,119.625
1611,337,2644,110.167
1612,340,2762,115.083
1613,345,2653,110.542
1614,366,2860,119.167
1615,368,2881,120.042
1616,360,2788,116.167
1617,379,2975,123.958
1618,390,3079,128.292
1619,386,2984,124.333
1620,402,3122,130.083
1621,406,3172,132.167
1622,408,3173,132.208
1623,417,3285,136.875
1624,404,3163,131.792
1625,421,3209,133.708
1626,432,3346,139.417
1627,445,3424,142.667
1628,445,3451,143.792
1629,473,3659,152.458
1630,463,3574,148.917
1631,472,3660,152.5
1632,473,3696,154
1633,460,3583,149.292
1634,474,3706,154.417
1635,475,3754,156.417
1636,485,3789,157.875
1637,487,3800,158.333
1638,499,3889,162.042
1639,496,3845,160.208
1640,489,3804,158.5
1641,512,3990,166.25
1642,502,3960,165
1643,524,4069,169.542
1644,528,4106,171.083
1645,531,4061,169.208
1646,533,4151,172.958
1647,535,4110,171.25
1648,516,3995,166.458
1649,521,4036,168.167
1650,523,4028,167.833
1651,522,4068,169.5
1652,514,3963,165.125
1653,524,4040,168.333
1654,511,3918,163.25
1655,505,3873,161.375
1656,489,3800,158.333
1657,482,3689,153.708
1658,483,3740,155.833
1659,455,3511,146.292
1660,473,3662,152.583
1661,464,3554,148.083
1662,479,3717,154.875
1663,501,3847,160.292
1664,519,4010,167.083
1665,536,4161,173.375
1666,514,3958,164.917
1667,528,4075,169.792
1668,520,4057,169.042
1669,520,4034,168.083
1670,523,4106,171.083
1671,537,4151,172.958
1672,553,4353,181.375
1673,565,4386,182.75
1674,542,4193,174.708
1675,556,4347,181.125
1676,537,4139,172.458
1677,545,4247,176.958
1678,559,4355,181.458
1679,574,4493,187.208
1680,566,4369,182.042
1681,569,4396,183.167
1682,580,4487,186.958
1683,566,4362,181.75
1684,564,4396,183.167
1685,560,4369,182.042
1686,547,4211,175.458
1687,567,4425,184.375
1688,555,4294,178.917
1689,556,4364,181.833
1690,561,4379,182.458
1691,571,4444,185.167
1692,586,4583,190.958
1693,595,4587,191.125
1694,593,4614,192.25
1695,610,4751,197.958
1696,624,4867,202.792
1697,603,4696,195.667
1698,594,4563,190.125
1699,598,4632,193
1700,615,4707,196.125
1701,601,4633,193.042
1702,611,4738,197.417
1703,602,4626,192.75
1704,602,4608,192
1705,592,4542,189.25
1706,601,4630,192.917
1707,594,4532,188.833
1708,602,4626,192.75
1709,619,4694,195.583
1710,614,4747,197.792
1711,602,4580,190.833
1712,615,4782,199.25
1713,608,4748,197.833
1714,607,4711,196.292
1715,590,4551,189.625
1716,592,4623,192.625
1717,585,4592,191.333
1718,578,4475,186.458
1719,563,4359,181.625
1720,581,4541,189.208
1721,574,4451,185.458
1722,589,4627,192.792
1723,594,4589,191.208
1724,603,4648,193.667
1725,620,4873,203.042
1726,630,4903,204.292
1727,626,4921,205.042
1728,623,4794,199.75
1729,609,4735,197.292
1730,628,4861,202.542
1731,653,5055,210.625
1732,651,5074,211.417
1733,666,5126,213.583
1734,681,5289,220.375
1735,679,5312,221.333
1736,662,5158,214.917
1737,649,5042,210.083
1738,649,5045,210.208
1739,651,5020,209.167
1740,637,4902,204.25
1741,676,5285,220.208
1742,667,5182,215.917
1743,672,5209,217.042
1744,679,5283,220.125
1745,721,5571,232.125
1746,728,5664,236
1747,731,5648,235.333
1748,749,5787,241.125
1749,751,5832,243
1750,775,5948,247.833
1751,768,5941,247.542
1752,776,6105,254.375
1753,784,5993,249.708
1754,799,6176,257.333
1755,810,6274,261.417
1756,825,6394,266.417
1757,830,6432,268
1758,854,6676,278.167
1759,841,6540,272.5
1760,863,6723,280.125
1761,881,6823,284.292
1762,912,7063,294.292
1763,922,7117,296.542
1764,942,7288,303.667
1765,968,7416,309
1766,976,7531,313.792
1767,966,7403,308.458
1768,942,7313,304.708
1769,952,7360,306.667
1770,958,7468,311.167
1771,970,7498,312.417
1772,1000,7725,321.875
1773,1033,7990,332.917
1774,1030,7907,329.458
1775,1068,8308,346.167
1776,1076,8230,342.917
1777,1085,8347,347.792
1778,1085,8305,346.042
1779,1115,8603,358.458
1780,1087,8433,351.375
1781,1067,8222,342.583
1782,1084,8412,350.5
1783,1066,8170,340.417
1784,1094,8441,351.708
1785,1101,8489,353.708
1786,1109,8621,359.208
1787,1139,8820,367.5
1788,1155,8920,371.667
1789,1131,8735,363.958
1790,1121,8636,359.833
1791,1129,8680,361.667
1792,1141,8783,365.958
1793,1105,8567,356.958
1794,1110,8583,357.625
1795,1103,8558,356.583
1796,1108,8549,356.208
1797,1105,8485,353.542
1798,1113,8611,358.792
1799,1103,8467,352.792
1800,1113,8639,359.958
1801,1119,8663,360.958
1802,1105,8496,354
1803,1135,8687,361.958
1804,1107,8654,360.583
1805,1123,8697,362.375
1806,1134,8847,368.625
1807,1131,8824,367.667
1808,1103,8579,357.458
1809,1104,8520,355
1810,1145,8942,372.583
1811,1160,8999,374.958
1812,1167,9079,378.292
1813,1176,9084,378.5
1814,1167,9033,376.375
1815,1182,9109,379.542
1816,1193,9197,383.208
1817,1195,9383,390.958
1818,1191,9220,384.167
1819,1178,9169,382.042
1820,1184,9167,381.958
1821,1172,9001,375.042
1822,1153,8911,371.292
1823,1160,8990,374.583
1824,1167,9056,377.333
1825,1191,9244,385.167
1826,1168,9121,380.042
1827,1198,9244,385.167
1828,1197,9251,385.458
1829,1195,9166,381.917
1830,1192,9260,385.833
1831,1200,9254,385.583
1832,1182,9117,379.875
1833,1185,9177,382.375
1834,1213,9364,390.167
1835,1223,9489,395.375
1836,1251,9641,401.708
1837,1218,9466,394.417
1838,1226,9461,394.208
1839,1225,9401,391.708
1840,1232,9579,399.125
1841,1208,9323,388.458
1842,1220,9534,397.25
1843,1203,9193,383.042
1844,1218,9448,393.667
1845,1228,9513,396.375
1846,1224,9434,393.083
1847,1214,9440,393.333
1848,1206,9362,390.083
1849,1179,9127,380.292
1850,1166,8973,373.875
1851,1159,9040,376.667
1852,1181,9159,381.625
1853,1156,8901,370.875
1854,1216,9394,391.417
1855,1213,9439,393.292
1856,1225,9520,396.667
1857,1190,9328,388.667
1858,1177,9314,388.083
1859,1162,9077,378.208
1860,1182,9206,383.583
1861,1175,9194,383.083
1862,1185,9142,380.917
1863,1201,9464,394.333
1864,1184,9138,380.75
1865,1195,9348,389.5
1866,1218,9402,391.75
1867,1207,9395,391.458
1868,1241,9602,400.083
1869,1250,9723,405.125
1870,1266,9786,407.75
1871,1290,10019,417.458
1872,1295,10089,420.375
1873,1284,9873,411.375
1874,1284,9998,416.583
1875,1287,9876,411.5
1876,1287,9952,414.667
1877,1289,9962,415.083
1878,1254,9750,406.25
1879,1254,9701,404.208
1880,1277,9980,415.833
1881,1247,9587,399.458
1882,1266,9806,408.583
1883,1294,10043,418.458
1884,1282,9864,411
1885,1277,9816,409
1886,1293,10096,420.667
1887,1258,9631,401.292
1888,1268,9893,412.208
1889,1271,9813,408.875
1890,1303,10157,423.208
1891,1288,10111,421.292
1892,1303,10212,425.5
1893,1316,10165,423.542
1894,1314,10214,425.583
1895,1328,10256,427.333
1896,1320,10232,426.333
1897,1295,9995,416.458
1898,1321,10340,430.833
1899,1333,10285,428.542
1900,1357,10570,440.417
1901,1336,10363,431.792
1902,1322,10315,429.792
1903,1291,10057,419.042
1904,1311,10127,421.958
1905,1294,9993,416.375
1906,1326,10351,431.292
1907,1351,10436,434.833
1908,1364,10628,442.833
1909,1373,10660,444.167
1910,1370,10714,446.417
1911,1364,10644,443.5
1912,1377,10698,445.75
1913,1359,10602,441.75
1914,1354,10526,438.583
1915,1368,10679,444.958
1916,1382,10707,446.125
1917,1420,11025,459.375
1918,1414,10968,457
1919,1450,11162,465.083
1920,1487,11514,479.75
1921,1508,11614,483.917
1922,1507,11653,485.542
1923,1496,11559,481.625
1924,1516,11785,491.042
1925,1470,11374,473.917
1926,1455,11208,467
1927,1455,11202,466.75
1928,1466,11316,471.5
1929,1446,11209,467.042
1930,1460,11190,466.25
1931,1454,11298,470.75
1932,1414,10884,453.5
1933,1423,11055,460.625
1934,1395,10763,448.458
1935,1391,10812,450.5
1936,1359,10507,437.792
1937,1381,10751,447.958
1938,1353,10543,439.292
1939,1380,10759,448.292
1940,1368,10599,441.625
1941,1346,10433,434.708
1942,1340,10354,431.417
1943,1334,10397,433.208
1944,1346,10400,433.333
1945,1332,10340,430.833
1946,1314,10158,423.25
1947,1325,10324,430.167
1948,1311,10159,423.292
1949,1350,10555,439.792
1950,1324,10315,429.792
1951,1315,10230,426.25
1952,1303,10150,422.917
1953,1293,10104,421
1954,1292,10110,421.25
1955,1279,9970,415.417
1956,1264,9909,412.875
1957,1241,9604,400.167
1958,1204,9283,386.792
1959,1227,9589,399.542
1960,1214,9408,392
1961,1259,9811,408.792
1962,1264,9843,410.125
1963,1282,10052,418.833
1964,1274,9977,415.708
1965,1282,10071,419.625
1966,1290,10041,418.375
1967,1277,9989,416.208
1968,1285,9960,415
1969,1278,10045,418.542
1970,1263,9910,412.917
1971,1262,9880,411.667
1972,1293,10060,419.167
1973,1260,9860,410.833
1974,1238,9579,399.125
1975,1267,9836,409.833
1976,1232,9597,399.875
1977,1190,9264,386
1978,1166,9143,380.958
1979,1164,9072,378
1980,1156,9008,375.333
1981,1132,8889,370.375
1982,1160,9118,379.917
1983,1139,8918,371.583
1984,1140,8845,368.542
1985,1142,8959,373.292
1986,1124,8737,364.042
1987,1121,8806,366.917
1988,1109,8703,362.625
1989,1094,8489,353.708
1990,1095,8534,355.583
1991,1089,8412,350.5
1992,1112,8717,363.208
1993,1103,8559,356.625
1994,1120,8769,365.375
1995,1074,8341,347.542
1996,1048,8138,339.083
1997,1064,8348,347.833
1998,1052,8199,341.625
1999,1073,8420,350.833
2000,1056,8217,342.375
2001,1090,8461,352.542
2002,1096,8566,356.917
2003,1080,8420,350.833
2004,1088,8457,352.375
2005,1077,8378,349.083
2006,1099,8581,357.542
2007,1082,8484,353.5
2008,1085,8460,352.5
2009,1093,8589,357.875
2010,1108,8640,360
2011,1149,9021,375.875
2012,1138,8863,369.292
2013,1142,8906,371.083
2014,1163,9059,377.458
2015,1136,8880,370
2016,1135,8853,368.875
2017,1147,8964,373.5
2018,1158,9011,375.458
2019,1137,8877,369.875
2020,1113,8708,362.833
2021,1134,8876,369.833
2022,1124,8750,364.583
2023,1163,9171,382.125
2024,1149,8982,374.25
2025,1162,9126,380.25
2026,1192,9300,387.5
2027,1196,9361,390.042
2028,1177,9190,382.917
2029,1183,9352,389.667
2030,1173,9182,382.583
2031,1192,9283,386.792
2032,1181,9263,385.958
2033,1180,9231,384.625
2034,1195,9309,387.875
2035,1201,9383,390.958
2036,1210,9470,394.583
2037,1185,9184,382.667
2038,1189,9260,385.833
2039,1199,9413,392.208
2040,1202,9398,391.583
2041,1189,9294,387.25
2042,1182,9275,386.458
2043,1153,9016,375.667
2044,1162,9125,380.208
2045,1177,9227,384.458
2046,1176,9185,382.708
2047,1207,9506,396.083
2048,1247,9752,406.333
2049,1247,9804,408.5
2050,1251,9811,408.792
2051,1248,9735,405.625
2052,1204,9451,393.792
2053,1221,9546,397.75
2054,1207,9441,393.375
2055,1205,9429,392.875
2056,1201,9312,388
2057,1221,9507,396.125
2058,1217,9492,395.5
2059,1224,9490,395.417
2060,1258,9858,410.75
2061,1236,9682,403.417
2062,1226,9636,401.5
2063,1223,9545,397.708
2064,1249,9753,406.375
2065,1262,9943,414.292
2066,1273,9988,416.167
2067,1303,10242,426.75
2068,1329,10360,431.667
2069,1309,10297,429.042
2070,1327,10349,431.208
2071,1313,10270,427.917
2072,1341,10515,438.125
2073,1303,10206,425.25
2074,1284,10128,422
2075,1263,9816,409
2076,1268,9998,416.583
2077,1274,9963,415.125
2078,1280,10039,418.292
2079,1282,9996,416.5
2080,1318,10289,428.708
2081,1317,10297,429.042
2082,1299,10228,426.167
2083,1308,10295,428.958
2084,1327,10330,430.417
2085,1315,10258,427.417
2086,1329,10402,433.417
2087,1347,10514,438.083
2088,1327,10327,430.292
2089,1346,10574,440.583
2090,1372,10737,447.375
2091,1353,10614,442.25
2092,1378,10714,446.417
2093,1392,10863,452.625
2094,1381,10746,447.75
2095,1389,10849,452.042
2096,1411,11054,460.583
2097,1404,11045,460.208
2098,1369,10709,446.208
2099,1336,10422,434.25
2100,1374,10735,447.292
2101,1350,10580,440.833
2102,1371,10728,447
2103,1369,10707,446.125
2104,1344,10578,440.75
2105,1339,10423,434.292
2106,1334,10485,436.875
2107,1329,10446,435.25
2108,1349,10664,444.333
2109,1347,10526,438.583
2110,1366,10687,445.292
2111,1372,10822,450.917
2112,1394,10946,456.083
2113,1375,10725,446.875
2114,1375,10765,448.542
2115,1372,10747,447.792
2116,1357,10548,439.5
2117,1332,10514,438.083
2118,1315,10238,426.583
2119,1311,10262,427.583
2120,1327,10376,432.333
2121,1325,10350,431.25
2122,1322,10326,430.25
2123,1321,10291,428.792
2124,1310,10301,429.208
2125,1292,10131,422.125
2126,1286,10029,417.875
2127,1285,10041,418.375
2128,1297,10036,418.167
2129,1294,10192,424.667
2130,1280,10003,416.792
2131,1255,9757,406.542
2132,1236,9779,407.458
2133,1273,10024,417.667
2134,1276,10015,417.292
2135,1290,10129,422.042
2136,1263,9924,413.5
2137,1250,9729,405.375
2138,1228,9580,399.167
2139,1274,9981,415.875
2140,1262,9921,413.375
2141,1246,9719,404.958
2142,1252,9801,408.375
2143,1239,9594,399.75
2144,1222,9568,398.667
2145,1256,9727,405.292
2146,1262,9934,413.917
2147,1230,9599,399.958
2148,1239,9766,406.917
2149,1211,9505,396.042
2150,1173,9150,381.25
2151,1190,9328,388.667
2152,1234,9688,403.667
2153,1220,9583,399.292
2154,1246,9752,406.333
2155,1246,9751,406.292
2156,1248,9817,409.042
2157,1275,9972,415.5
2158,1269,9945,414.375
2159,1272,9969,415.375
2160,1270,9979,415.792
2161,1280,10038,418.25
2162,1272,9899,412.458
2163,1290,10150,422.917
2164,1322,10374,432.25
2165,1318,10311,429.625
2166,1302,10149,422.875
2167,1310,10339,430.792
2168,1291,10063,419.292
2169,1245,9731,405.458
2170,1265,9862,410.917
2171,1270,9962,415.083
2172,1272,10000,416.667
2173,1281,10024,417.667
2174,1267,9997,416.542
2175,1236,9704,404.333
2176,1290,10071,419.625
2177,1255,9860,410.833
2178,1277,10029,417.875
2179,1252,9830,409.583
2180,1252,9836,409.833
2181,1232,9671,402.958
2182,1244,9747,406.125
2183,1256,9887,411.958
2184,1292,10078,419.917
2185,1313,10317,429.875
2186,1299,10135,422.292
2187,1287,10171,423.792
2188,1282,10164,423.5
2189,1300,10207,425.292
2190,1271,10079,419.958
2191,1269,9954,414.75
2192,1313,10279,428.292
2193,1315,10333,430.542
2194,1299,10199,424.958
2195,1292,10061,419.208
2196,1309,10259,427.458
2197,1285,10017,417.375
2198,1298,10230,426.25
2199,1294,10193,424.708
2200,1332,10496,437.333
2201,1325,10409,433.708
2202,1335,10414,433.917
2203,1343,10443,435.125
2204,1328,10393,433.042
2205,1343,10539,439.125
2206,1315,10410,433.75
2207,1271,9954,414.75
2208,1270,9878,411.583
2209,1252,9835,409.792
2210,1251,9798,408.25
2211,1280,10102,420.917
2212,1300,10206,425.25
2213,1291,10178,424.083
2214,1292,10107,421.125
2215,1277,10135,422.292
2216,1291,10127,421.958
2217,1275,10096,420.667
2218,1301,10282,428.417
2219,1262,9901,412.542
2220,1262,9969,415.375
2221,1224,9617,400.708
2222,1264,9885,411.875
2223,1264,9936,414
2224,1252,9830,409.583
2225,1243,9792,408
2226,1231,9648,402
2227,1248,9928,413.667
2228,1221,9426,392.75
2229,1250,9857,410.708
2230,1252,9887,411.958
2231,1252,9896,412.333
2232,1228,9652,402.167
2233,1232,9776,407.333
2234,1218,9660,402.5
2235,1240,9721,405.042
2236,1222,9586,399.417
2237,1246,9927,413.625
2238,1254,9736,405.667
2239,1251,9855,410.625
2240,1240,9629,401.208
2241,1243,9787,407.792
2242,1230,9669,402.875
2243,1249,9762,406.75
2244,1251,9810,408.75
2245,1262,9882,411.75
2246,1252,9837,409.875
2247,1285,10068,419.5
2248,1291,10116,421.5
2249,1343,10549,439.542
2250,1345,10603,441.792
2251,1353,10579,440.792
2252,1379,10887,453.625
2253,1387,10952,456.333
2254,1379,10859,452.458
2255,1362,10746,447.75
2256,1354,10604,441.833
2257,1346,10608,442
2258,1357,10724,446.833
2259,1344,10518,438.25
2260,1373,10946,456.083
2261,1349,10594,441.417
2262,1383,10919,454.958
2263,1416,11117,463.208
2264,1440,11398,474.917
2265,1415,11181,465.875
2266,1397,10984,457.667
2267,1410,11174,465.583
2268,1393,10994,458.083
2269,1386,10931,455.458
2270,1410,11150,464.583
2271,1434,11275,469.792
2272,1407,11053,460.542
2273,1399,11064,461
2274,1379,10899,454.125
2275,1394,10982,457.583
2276,1394,11050,460.417
2277,1412,11223,467.625
2278,1422,11269,469.542
2279,1454,11521,480.042
2280,1411,11221,467.542
2281,1439,11377,474.042
2282,1399,11126,463.583
2283,1403,11175,465.625
2284,1358,10725,446.875
2285,1351,10732,447.167
2286,1340,10635,443.125
2287,1359,10789,449.542
2288,1350,10715,446.458
2289,1342,10544,439.333
2290,1349,10742,447.583
2291,1320,10481,436.708
2292,1328,10524,438.5
2293,1358,10657,444.042
2294,1347,10660,444.167
2295,1368,10804,450.167
2296,1384,11000,458.333
2297,1378,10889,453.708
2298,1374,10833,451.375
2299,1395,11003,458.458
2300,1385,10991,457.958
2301,1377,10810,450.417
2302,1375,10880,453.333
2303,1356,10827,451.125
2304,1358,10857,452.375
2305,1353,10677,444.875
2306,1338,10635,443.125
2307,1335,10548,439.5
2308,1352,10747,447.792
2309,1327,10521,438.375
2310,1320,10480,436.667
2311,1308,10416,434
2312,1295,10235,426.458
2313,1294,10205,425.208
2314,1298,10320,430
2315,1248,9861,410.875
2316,1234,9744,406
2317,1204,9579,399.125
2318,1185,9353,389.708
2319,1185,9450,393.75
2320,1194,9461,394.208
2321,1165,9271,386.292
2322,1164,9261,385.875
2323,1144,9077,378.208
2324,1155,9228,384.5
2325,1124,8963,373.458
2326,1134,9013,375.542
2327,1128,8935,372.292
2328,1108,8798,366.583
2329,1100,8717,363.208
2330,1097,8693,362.208
2331,1070,8512,354.667
2332,1063,8451,352.125
2333,1081,8604,358.5
2334,1090,8656,360.667
2335,1067,8450,352.083
2336,1059,8274,344.75
2337,1058,8302,345.917
2338,1062,8388,349.5
2339,1037,8211,342.125
2340,1029,8093,337.208
2341,1048,8348,347.833
2342,1039,8193,341.375
2343,1062,8417,350.708
2344,1072,8559,356.625
2345,1070,8439,351.625
2346,1077,8581,357.542
2347,1067,8450,352.083
2348,1058,8434,351.417
2349,1050,8335,347.292
2350,1042,8344,347.667
2351,1010,8016,334
2352,990,7911,329.625
2353,981,7783,324.292
2354,969,7735,322.292
2355,992,7770,323.75
2356,983,7809,325.375
2357,989,7831,326.292
2358,1024,8145,339.375
2359,1024,8162,340.083
2360,1050,8333,347.208
2361,1051,8284,345.167
2362,1044,8271,344.625
2363,1053,8343,347.625
2364,1068,8497,354.042
2365,1055,8398,349.917
2366,1058,8351,347.958
2367,1061,8419,350.792
2368,1043,8314,346.417
2369,1038,8339,347.458
2370,1046,8273,344.708
2371,1053,8379,349.125
2372,1073,8554,356.417
2373,1052,8295,345.625
2374,1070,8423,350.958
2375,1058,8353,348.042
2376,1064,8455,352.292
2377,1050,8334,347.25
2378,1053,8291,345.458
2379,1068,8454,352.25
2380,1056,8396,349.833
2381,1087,8652,360.5
2382,1108,8736,364
2383,1062,8500,354.167
2384,1019,8066,336.083
2385,1002,7964,331.833
2386,1009,8045,335.208
2387,997,7946,331.083
2388,998,7930,330.417
2389,999,7979,332.458
2390,1000,7930,330.417
2391,1007,8006,333.583
2392,1012,7960,331.667
2393,984,7759,323.292
2394,985,7836,326.5
2395,989,7829,326.208
2396,1019,8064,336
2397,1062,8369,348.708
2398,1033,8168,340.333
2399,1062,8394,349.75
2400,1080,8460,352.5
2401,1077,8488,353.667
2402,1049,8308,346.167
2403,1043,8218,342.417
2404,1045,8324,346.833
2405,1048,8333,347.208
2406,1040,8172,340.5
2407,1049,8376,349
2408,1053,8413,350.542
2409,1054,8342,347.583
2410,1064,8490,353.75
2411,1058,8331,347.125
2412,1039,8284,345.167
2413,1025,8177,340.708
2414,1022,8132,338.833
2415,1024,8140,339.167
2416,1038,8298,345.75
2417,1063,8422,350.917
2418,1076,8545,356.042
2419,1098,8768,365.333
2420,1050,8324,346.833
2421,1030,8224,342.667
2422,1042,8357,348.208
2423,1057,8357,348.208
2424,1063,8556,356.5
2425,1083,8626,359.417
2426,1028,8183,340.958
2427,1072,8553,356.375
2428,1089,8706,362.75
2429,1062,8444,351.833
2430,1059,8426,351.083
2431,1076,8622,359.25
2432,1053,8416,350.667
2433,1064,8448,352
2434,1061,8452,352.167
2435,1062,8453,352.208
2436,1051,8359,348.292
2437,1056,8473,353.042
2438,1071,8524,355.167
2439,1081,8651,360.458
2440,1104,8760,365
2441,1083,8553,356.375
2442,1076,8617,359.042
2443,1079,8597,358.208
2444,1099,8737,364.042
2445,1129,8973,373.875
2446,1142,9124,380.167
2447,1133,8966,373.583
2448,1133,9027,376.125
2449,1165,9243,385.125
2450,1162,9302,387.583
2451,1163,9264,386
2452,1150,9231,384.625
2453,1169,9241,385.042
2454,1171,9404,391.833
2455,1173,9324,388.5
2456,1168,9316,388.167
2457,1171,9319,388.292
2458,1183,9427,392.792
2459,1167,9423,392.625
2460,1154,9303,387.625
2461,1168,9388,391.167
2462,1183,9547,397.792
2463,1168,9385,391.042
2464,1173,9356,389.833
2465,1203,9602,400.083
2466,1203,9579,399.125
2467,1188,9592,399.667
2468,1169,9323,388.458
2469,1189,9511,396.292
2470,1209,9635,401.458
2471,1220,9766,406.917
2472,1263,10139,422.458
2473,1237,9889,412.042
2474,1244,9896,412.333
2475,1238,9986,416.083
2476,1198,9545,397.708
2477,1197,9569,398.708
2478,1202,9480,395
2479,1176,9392,391.333
2480,1199,9482,395.083
2481,1195,9592,399.667
2482,1225,9666,402.75
2483,1204,9556,398.167
2484,1196,9497,395.708
2485,1189,9421,392.542
2486,1186,9435,393.125
2487,1169,9250,385.417
2488,1174,9367,390.292
2489,1162,9244,385.167
2490,1192,9552,398
2491,1196,9493,395.542
2492,1202,9610,400.417
2493,1176,9293,387.208
2494,1167,9377,390.708
2495,1130,8945,372.708
2496,1122,9028,376.167
2497,1126,8956,373.167
2498,1142,9192,383
2499,1119,8907,371.125
2500,1111,8811,367.125
2501,1146,9093,378.875
2502,1141,9136,380.667
2503,1144,9169,382.042
2504,1116,8905,371.042
2505,1102,8841,368.375
2506,1077,8581,357.542
2507,1090,8714,363.083
2508,1075,8674,361.417
2509,1077,8623,359.292
2510,1097,8800,366.667
2511,1079,8623,359.292
2512,1049,8379,349.125
2513,1051,8385,349.375
2514,1057,8507,354.458
2515,1048,8461,352.542
2516,1053,8434,351.417
2517,1036,8377,349.042
2518,1044,8432,351.333
2519,1033,8295,345.625
2520,1029,8340,347.5
2521,1015,8181,340.875
2522,1014,8191,341.292
2523,988,7976,332.333
2524,1004,8099,337.458
2525,1011,8075,336.458
2526,1018,8212,342.167
2527,977,7836,326.5
2528,962,7743,322.625
2529,978,7885,328.542
2530,954,7642,318.417
2531,956,7598,316.583
2532,912,7348,306.167
2533,936,7446,310.25
2534,925,7346,306.083
2535,925,7492,312.167
2536,908,7243,301.792
2537,926,7468,311.167
2538,956,7765,323.542
2539,915,7344,306
2540,892,7136,297.333
2541,882,7178,299.083
2542,870,7057,294.042
2543,844,6792,283
2544,839,6797,283.208
2545,851,6861,285.875
2546,828,6669,277.875
2547,814,6571,273.792
2548,788,6338,264.083
2549,787,6264,261
2550,821,6646,276.917
2551,792,6393,266.375
2552,784,6302,262.583
2553,784,6293,262.208
2554,788,6384,266
2555,774,6283,261.792
2556,760,6136,255.667
2557,747,6012,250.5
2558,737,5935,247.292
2559,738,5908,246.167
2560,723,5868,244.5
2561,728,5853,243.875
2562,727,5813,242.208
2563,721,5873,244.708
2564,703,5619,234.125
2565,698,5713,238.042
2566,692,5575,232.292
2567,678,5523,230.125
2568,664,5333,222.208
2569,669,5414,225.583
2570,683,5460,227.5
2571,677,5416,225.667
2572,652,5234,218.083
2573,642,5227,217.792
2574,646,5177,215.708
2575,623,5052,210.5
2576,615,4963,206.792
2577,610,4954,206.417
2578,630,5088,212
2579,605,4850,202.083
2580,627,5032,209.667
2581,619,5039,209.958
2582,614,4956,206.5
2583,598,4859,202.458
2584,614,4959,206.625
2585,580,4643,193.458
2586,602,4875,203.125
2587,571,4671,194.625
2588,575,4637,193.208
2589,583,4706,196.083
2590,586,4722,196.75
2591,587,4790,199.583
2592,579,4655,193.958
2593,577,4676,194.833
2594,573,4626,192.75
2595,569,4568,190.333
2596,559,4499,187.458
2597,570,4655,193.958
2598,552,4497,187.375
2599,549,4476,186.5
2600,541,4378,182.417
2601,546,4413,183.875
2602,533,4323,180.125
2603,529,4314,179.75
2604,531,4264,177.667
2605,551,4459,185.792
2606,552,4379,182.458
2607,538,4333,180.542
2608,549,4488,187
2609,540,4397,183.208
2610,530,4301,179.208
2611,541,4360,181.667
2612,553,4483,186.792
2613,545,4447,185.292
2614,524,4229,176.208
2615,520,4229,176.208
2616,518,4196,174.833
2617,519,4255,177.292
2618,532,4217,175.708
2619,531,4328,180.333
2620,525,4238,176.583
2621,506,4078,169.917
2622,515,4119,171.625
2623,515,4151,172.958
2624,517,4155,173.125
2625,518,4164,173.5
2626,512,4069,169.542
2627,502,4056,169
2628,493,3959,164.958
2629,514,4140,172.5
2630,514,4119,171.625
2631,503,4054,168.917
2632,492,3943,164.292
2633,486,3960,165
2634,489,3946,164.417
2635,491,3972,165.5
2636,485,3892,162.167
2637,479,3901,162.542
2638,475,3879,161.625
2639,465,3774,157.25
2640,457,3742,155.917
2641,470,3814,158.917
2642,458,3715,154.792
2643,470,3803,158.458
2644,451,3688,153.667
2645,445,3625,151.042
2646,435,3558,148.25
2647,443,3572,148.833
2648,446,3624,151
2649,462,3765,156.875
2650,455,3670,152.917
2651,455,3680,153.333
2652,460,3704,154.333
2653,436,3481,145.042
2654,434,3521,146.708
2655,425,3418,142.417
2656,426,3425,142.708
2657,418,3417,142.375
2658,420,3478,144.917
2659,423,3388,141.167
2660,417,3422,142.583
2661,402,3267,136.125
2662,420,3390,141.25
2663,418,3437,143.208
2664,401,3282,136.75
2665,413,3351,139.625
2666,412,3364,140.167
2667,407,3337,139.042
2668,413,3345,139.375
2669,394,3251,135.458
2670,400,3301,137.542
2671,385,3129,130.375
2672,405,3296,137.333
2673,406,3337,139.042
2674,398,3213,133.875
2675,401,3260,135.833
2676,404,3286,136.917
2677,406,3307,137.792
2678,395,3206,133.583
2679,385,3155,131.458
2680,391,3166,131.917
2681,372,3069,127.875
2682,372,3039,126.625
2683,376,3045,126.875
2684,369,2981,124.208
2685,371,3000,125
2686,377,3048,127
2687,378,3070,127.917
2688,382,3147,131.125
2689,368,2992,124.667
2690,372,3042,126.75
2691,351,2873,119.708
2692,345,2815,117.292
2693,337,2751,114.625
2694,353,2853,118.875
2695,350,2905,121.042
2696,336,2762,115.083
2697,328,2635,109.792
2698,322,2635,109.792
2699,305,2454,102.25
2700,294,2391,99.625
2701,304,2497,104.042
2702,309,2537,105.708
2703,296,2428,101.167
2704,294,2382,99.25
2705,286,2350,97.9167
2706,286,2301,95.875
2707,286,2323,96.7917
2708,274,2195,91.4583
2709,258,2085,86.875
2710,263,2119,88.2917
2711,252,2035,84.7917
2712,243,1963,81.7917
2713,248,2031,84.625
2714,250,1998,83.25
2715,252,2065,86.0417
2716,252,2033,84.7083
2717,241,1965,81.875
2718,252,2064,86
2719,240,1966,81.9167
2720,240,1953,81.375
2721,243,1965,81.875
2722,248,1961,81.7083
2723,234,1864,77.6667
2724,234,1877,78.2083
2725,223,1813,75.5417
2726,214,1705,71.0417
2727,207,1697,70.7083
2728,211,1696,70.6667
2729,211,1715,71.4583
2730,232,1874,78.0833
2731,243,1922,80.0833
2732,238,1905,79.375
2733,227,1844,76.8333
2734,224,1753,73.0417
2735,230,1919,79.9583
2736,232,1899,79.125
2737,232,1896,79
2738,224,1854,77.25
2739,220,1802,75.0833
2740,221,1828,76.1667
2741,227,1866,77.75
2742,229,1836,76.5
2743,225,1865,77.7083
2744,224,1823,75.9583
2745,218,1762,73.4167
2746,221,1783,74.2917
2747,227,1856,77.3333
2748,217,1752,73
2749,217,1742,72.5833
2750,228,1871,77.9583
2751,224,1780,74.1667
2752,226,1826,76.0833
2753,237,1883,78.4583
2754,238,1940,80.8333
2755,230,1851,77.125
2756,227,1871,77.9583
2757,223,1820,75.8333
2758,213,1725,71.875
2759,215,1751,72.9583
2760,215,1773,73.875
2761,215,1733,72.2083
2762,223,1875,78.125
2763,220,1761,73.375
2764,215,1786,74.4167
2765,220,1793,74.7083
2766,210,1716,71.5
2767,215,1770,73.75
2768,211,1734,72.25
2769,200,1595,66.4583
2770,199,1612,67.1667
2771,196,1589,66.2083
2772,187,1514,63.0833
2773,184,1482,61.75
2774,192,1549,64.5417
2775,183,1444,60.1667
2776,185,1473,61.375
2777,191,1528,63.6667
2778,197,1592,66.3333
2779,183,1491,62.125
2780,197,1620,67.5
2781,199,1604,66.8333
2782,196,1618,67.4167
2783,191,1543,64.2917
2784,191,1577,65.7083
2785,191,1592,66.3333
2786,182,1473,61.375
2787,181,1490,62.0833
2788,175,1417,59.0417
2789,176,1429,59.5417
2790,177,1433,59.7083
2791,170,1381,57.5417
2792,171,1387,57.7917
2793,171,1378,57.4167
2794,170,1400,58.3333
2795,169,1340,55.8333
2796,167,1356,56.5
2797,158,1297,54.0417
2798,154,1248,52
2799,148,1217,50.7083
2800,140,1149,47.875
2801,144,1191,49.625
2802,139,1137,47.375
2803,139,1136,47.3333
2804,135,1093,45.5417
2805,131,1083,45.125
2806,130,1060,44.1667
2807,134,1103,45.9583
2808,126,1004,41.8333
2809,133,1073,44.7083
2810,124,1001,41.7083
2811,125,1027,42.7917
2812,120,968,40.3333
2813,117,980,40.8333
2814,115,932,38.8333
2815,104,873,36.375
2816,106,899,37.4583
2817,102,843,35.125
2818,109,896,37.3333
2819,103,860,35.8333
2820,106,851,35.4583
2821,100,841,35.0417
2822,108,911,37.9583
2823,101,831,34.625
2824,105,866,36.0833
2825,99,822,34.25
2826,103,842,35.0833
2827,97,797,33.2083
2828,106,892,37.1667
2829,104,842,35.0833
2830,106,893,37.2083
2831,103,853,35.5417
2832,103,838,34.9167
2833,103,853,35.5417
2834,100,822,34.25
2835,103,845,35.2083
2836,99,816,34
2837,93,764,31.8333
2838,88,721,30.0417
2839,81,690,28.75
2840,86,707,29.4583
2841,82,680,28.3333
2842,80,660,27.5
2843,79,656,27.3333
2844,76,627,26.125
2845,78,635,26.4583
2846,77,634,26.4167
2847,78,634,26.4167
2848,81,674,28.0833
2849,78,641,26.7083
2850,86,715,29.7917
2851,84,687,28.625
2852,89,758,31.5833
2853,81,657,27.375
2854,84,709,29.5417
2855,82,676,28.1667
2856,80,660,27.5
2857,83,687,28.625
2858,85,717,29.875
2859,77,642,26.75
2860,74,609,25.375
2861,71,595,24.7917
2862,70,578,24.0833
2863,71,583,24.2917
2864,74,625,26.0417
2865,75,631,26.2917
2866,73,592,24.6667
2867,71,591,24.625
2868,76,637,26.5417
2869,77,643,26.7917
2870,75,626,26.0833
2871,78,654,27.25
2872,81,665,27.7083
2873,81,693,28.875
2874,79,637,26.5417
2875,81,677,28.2083
2876,84,680,28.3333
2877,82,680,28.3333
2878,85,709,29.5417
2879,82,695,28.9583
2880,86,710,29.5833
2881,85,708,29.5
2882,82,692,28.8333
2883,75,630,26.25
2884,77,644,26.8333
2885,74,634,26.4167
2886,76,635,26.4583
2887,78,652,27.1667
2888,82,688,28.6667
2889,83,677,28.2083
2890,86,704,29.3333
2891,92,765,31.875
2892,92,773,32.2083
2893,91,763,31.7917
2894,91,768,32
2895,88,734,30.5833
2896,91,765,31.875
2897,85,693,28.875
2898,84,689,28.7083
2899,76,611,25.4583
2900,81,681,28.375
2901,65,538,22.4167
2902,70,588,24.5
2903,59,508,21.1667
2904,63,525,21.875
2905,59,493,20.5417
2906,62,518,21.5833
2907,52,434,18.0833
2908,60,502,20.9167
2909,59,515,21.4583
2910,60,496,20.6667
2911,58,489,20.375
2912,62,546,22.75
2913,56,481,20.0417
2914,62,528,22
2915,62,542,22.5833
2916,68,591,24.625
2917,65,556,23.1667
2918,69,589,24.5417
2919,58,478,19.9167
2920,71,589,24.5417
2921,65,544,22.6667
2922,69,588,24.5
2923,62,532,22.1667
2924,66,558,23.25
2925,58,496,20.6667
2926,60,515,21.4583
2927,55,478,19.9167
2928,61,515,21.4583
2929,56,510,21.25
2930,54,449,18.7083
2931,56,489,20.375
2932,56,478,19.9167
2933,55,459,19.125
2934,57,491,20.4583
2935,53,470,19.5833
2936,49,418,17.4167
2937,43,374,15.5833
2938,46,392,16.3333
2939,42,364,15.1667
2940,42,368,15.3333
2941,39,349,14.5417
2942,38,344,14.3333
2943,35,317,13.2083
2944,35,311,12.9583
2945,36,339,14.125
2946,34,306,12.75
2947,30,274,11.4167
2948,31,286,11.9167
2949,29,271,11.2917
2950,29,264,11
2951,28,262,10.9167
2952,23,208,8.66667
2953,24,229,9.54167
2954,22,206,8.58333
2955,26,252,10.5
2956,21,187,7.79167
2957,22,206,8.58333
2958,19,169,7.04167
2959,20,196,8.16667
2960,18,172,7.16667
2961,16,151,6.29167
2962,19,190,7.91667
2963,15,142,5.91667
2964,15,142,5.91667
2965,13,122,5.08333
2966,15,145,6.04167
2967,13,113,4.70833
2968,17,167,6.95833
2969,15,133,5.54167
2970,13,122,5.08333
2971,12,115,4.79167
2972,12,113,4.70833
2973,14,131,5.45833
2974,10,91,3.79167
2975,14,130,5.41667
2976,9,84,3.5
2977,11,109,4.54167
2978,10,92,3.83333
2979,11,108,4.5
2980,11,102,4.25
2981,7,71,2.95833
2982,7,70,2.91667
2983,6,58,2.41667
2984,6,60,2.5
2985,4,42,1.75
2986,5,51,2.125
2987,3,33,1.375
2988,3,31,1.29167
2989,1,11,0.458333
2990,1,12,0.5
2991,1,12,0.5
2992,1,11,0.458333
2993,1,11,0.458333
2994,2,22,0.916667
2995,2,20,0.833333
2996,2,23,0.958333
2997,1,13,0.541667
2998,1,13,0.541667
2999,1,13,0.541667
3000,1,9,0.375
3001,1,9,0.375
3002,1,10,0.416667
3003,1,11,0.458333
workloadGranularity,avgTotalDD,maxTotalDDLevel,maxTotalDD, avg. # of rows per level,avg. # of nnzs per level
155.838,25.3755,340.404,2.13163,487.729,3740.1
NUM_THREADS:,24
CACHE_LINE:,64

thread workLoads & communication costs
0,1,2,3,4,5,6,7,8,9,10,11,12,13,14,15,16,17,18,19,20,21,22,23
469743,469733,469707,469675,469658,469639,469622,469612,469605,469599,469589,469578,469559,469553,469525,469507,469491,469472,469432,469411,469363,469261,468657,436272,
31045,99583,120274,138281,155461,164558,168504,168815,171218,170247,169752,170846,176238,178535,179374,180715,180083,186623,185325,179996,170145,154364,131016,64333,
stdev:,6647.51
avgTotalDDThread:,5.25
maxDD:,7
numOfThreadsUsed:,24


