level,# of rows,sum of NNZs,NNZs per HW thread
0,5,5,0.208333
1,5,10,0.416667
2,10,27,1.125
3,10,39,1.625
4,15,56,2.33333
5,15,68,2.83333
6,20,85,3.54167
7,20,97,4.04167
8,25,114,4.75
9,25,126,5.25
10,30,143,5.95833
11,30,155,6.45833
12,35,172,7.16667
13,35,184,7.66667
14,40,201,8.375
15,40,213,8.875
16,45,230,9.58333
17,45,242,10.0833
18,50,259,10.7917
19,50,271,11.2917
20,55,288,12
21,55,300,12.5
22,60,317,13.2083
23,60,329,13.7083
24,65,346,14.4167
25,65,358,14.9167
26,70,375,15.625
27,70,387,16.125
28,75,404,16.8333
29,75,416,17.3333
30,80,433,18.0417
31,80,445,18.5417
32,85,462,19.25
33,85,474,19.75
34,90,491,20.4583
35,90,503,20.9583
36,95,520,21.6667
37,95,532,22.1667
38,100,549,22.875
39,100,561,23.375
40,105,578,24.0833
41,105,590,24.5833
42,110,607,25.2917
43,110,619,25.7917
44,115,636,26.5
45,115,648,27
46,120,665,27.7083
47,120,677,28.2083
48,125,694,28.9167
49,125,706,29.4167
50,130,723,30.125
51,130,735,30.625
52,135,752,31.3333
53,135,764,31.8333
54,140,781,32.5417
55,140,793,33.0417
56,145,810,33.75
57,145,822,34.25
58,150,839,34.9583
59,150,851,35.4583
60,155,868,36.1667
61,155,880,36.6667
62,160,897,37.375
63,160,909,37.875
64,165,926,38.5833
65,160,800,33.3333
66,165,810,33.75
67,162,806,33.5833
68,167,814,33.9167
69,166,1209,50.375
70,171,1219,50.7917
71,170,1229,51.2083
72,175,1243,51.7917
73,174,1253,52.2083
74,179,1267,52.7917
75,178,1277,53.2083
76,183,1291,53.7917
77,182,1301,54.2083
78,187,1315,54.7917
79,186,1325,55.2083
80,191,1339,55.7917
81,190,1349,56.2083
82,195,1363,56.7917
83,194,1373,57.2083
84,199,1387,57.7917
85,198,1397,58.2083
86,203,1411,58.7917
87,202,1421,59.2083
88,207,1435,59.7917
89,206,1445,60.2083
90,211,1459,60.7917
91,210,1469,61.2083
92,215,1483,61.7917
93,214,1493,62.2083
94,219,1507,62.7917
95,218,1517,63.2083
96,223,1531,63.7917
97,222,1541,64.2083
98,227,1555,64.7917
99,226,1565,65.2083
100,231,1579,65.7917
101,230,1589,66.2083
102,235,1603,66.7917
103,234,1613,67.2083
104,239,1627,67.7917
105,238,1637,68.2083
106,243,1651,68.7917
107,242,1661,69.2083
108,247,1675,69.7917
109,246,1685,70.2083
110,251,1699,70.7917
111,250,1709,71.2083
112,255,1723,71.7917
113,254,1733,72.2083
114,259,1747,72.7917
115,258,1757,73.2083
116,263,1771,73.7917
117,262,1781,74.2083
118,267,1795,74.7917
119,266,1805,75.2083
120,271,1819,75.7917
121,270,1829,76.2083
122,275,1843,76.7917
123,274,1853,77.2083
124,279,1867,77.7917
125,278,1877,78.2083
126,283,1891,78.7917
127,282,1901,79.2083
128,282,1900,79.1667
129,281,1900,79.1667
130,281,1899,79.125
131,278,1895,78.9583
132,278,1892,78.8333
133,276,1887,78.625
134,274,1360,56.6667
135,272,1354,56.4167
136,270,1340,55.8333
137,268,1334,55.5833
138,268,2104,87.6667
139,266,2100,87.5
140,266,2100,87.5
141,264,2094,87.25
142,264,2094,87.25
143,262,2088,87
144,262,2088,87
145,260,2082,86.75
146,260,2082,86.75
147,258,2076,86.5
148,258,2076,86.5
149,256,2070,86.25
150,256,2070,86.25
151,254,2064,86
152,254,2064,86
153,252,2058,85.75
154,252,2058,85.75
155,250,2052,85.5
156,250,2052,85.5
157,248,2046,85.25
158,248,2046,85.25
159,246,2040,85
160,246,2040,85
161,244,2034,84.75
162,244,2034,84.75
163,242,2028,84.5
164,242,2028,84.5
165,240,2022,84.25
166,240,2022,84.25
167,238,2016,84
168,238,2016,84
169,236,2010,83.75
170,236,2010,83.75
171,234,2004,83.5
172,234,2004,83.5
173,232,1998,83.25
174,232,1998,83.25
175,230,1992,83
176,230,1992,83
177,228,1986,82.75
178,228,1986,82.75
179,226,1980,82.5
180,226,1980,82.5
181,224,1974,82.25
182,224,1974,82.25
183,222,1968,82
184,222,1968,82
185,220,1962,81.75
186,220,1962,81.75
187,218,1956,81.5
188,218,1956,81.5
189,216,1950,81.25
190,216,1950,81.25
191,215,2075,86.4583
192,215,2081,86.7083
193,216,2084,86.8333
194,216,2092,87.1667
195,217,2097,87.375
196,217,2106,87.75
197,215,2101,87.5417
198,215,2104,87.6667
199,213,2097,87.375
200,213,2100,87.5
201,210,1639,68.2917
202,209,1186,49.4167
203,206,1169,48.7083
204,205,1168,48.6667
205,203,1731,72.125
206,203,2316,96.5
207,201,2307,96.125
208,201,2310,96.25
209,199,2303,95.9583
210,199,2306,96.0833
211,197,2299,95.7917
212,197,2302,95.9167
213,195,2295,95.625
214,195,2298,95.75
215,193,2291,95.4583
216,193,2294,95.5833
217,191,2287,95.2917
218,191,2290,95.4167
219,189,2283,95.125
220,189,2286,95.25
221,187,2279,94.9583
222,187,2282,95.0833
223,185,2275,94.7917
224,185,2278,94.9167
225,183,2271,94.625
226,183,2274,94.75
227,181,2267,94.4583
228,181,2270,94.5833
229,179,2263,94.2917
230,179,2266,94.4167
231,177,2259,94.125
232,177,2262,94.25
233,175,2255,93.9583
234,175,2258,94.0833
235,173,2251,93.7917
236,173,2254,93.9167
237,171,2247,93.625
238,171,2250,93.75
239,169,2243,93.4583
240,169,2246,93.5833
241,167,2239,93.2917
242,167,2242,93.4167
243,165,2235,93.125
244,165,2238,93.25
245,163,2231,92.9583
246,163,2234,93.0833
247,161,2227,92.7917
248,161,2230,92.9167
249,159,2223,92.625
250,159,2226,92.75
251,157,2219,92.4583
252,157,2222,92.5833
253,155,2215,92.2917
254,155,2218,92.4167
255,153,2211,92.125
256,153,2346,97.75
257,152,2341,97.5417
258,152,2347,97.7917
259,151,2342,97.5833
260,151,2345,97.7083
261,150,2342,97.5833
262,151,2350,97.9167
263,150,2348,97.8333
264,150,2350,97.9167
265,149,2349,97.875
266,149,2351,97.9583
267,148,2350,97.9167
268,148,2352,98
269,146,1707,71.125
270,146,1707,71.125
271,143,1051,43.7917
272,143,1049,43.7083
273,141,1810,75.4167
274,141,1809,75.375
275,140,2715,113.125
276,140,2714,113.083
277,138,2711,112.958
278,138,2710,112.917
279,136,2707,112.792
280,136,2706,112.75
281,134,2703,112.625
282,134,2702,112.583
283,132,2699,112.458
284,132,2698,112.417
285,130,2695,112.292
286,130,2694,112.25
287,128,2691,112.125
288,128,2690,112.083
289,126,2687,111.958
290,126,2686,111.917
291,124,2683,111.792
292,124,2682,111.75
293,122,2679,111.625
294,122,2678,111.583
295,120,2675,111.458
296,120,2674,111.417
297,118,2671,111.292
298,118,2670,111.25
299,116,2667,111.125
300,116,2666,111.083
301,114,2663,110.958
302,114,2662,110.917
303,112,2659,110.792
304,112,2658,110.75
305,110,2655,110.625
306,110,2654,110.583
307,108,2651,110.458
308,108,2650,110.417
309,106,2647,110.292
310,106,2646,110.25
311,104,2643,110.125
312,104,2642,110.083
313,102,2639,109.958
314,102,2638,109.917
315,100,2635,109.792
316,100,2634,109.75
317,98,2631,109.625
318,98,2630,109.583
319,96,2627,109.458
320,96,2627,109.458
321,96,2764,115.167
322,96,2763,115.125
323,95,2764,115.167
324,95,2764,115.167
325,94,2766,115.25
326,95,2768,115.333
327,95,2777,115.708
328,96,2779,115.792
329,96,2788,116.167
330,97,2790,116.25
331,97,2801,116.708
332,98,2804,116.833
333,97,2807,116.958
334,97,2807,116.958
335,96,2808,117
336,96,2808,117
337,94,1973,82.2083
338,94,1971,82.125
339,92,1967,81.9583
340,92,996,41.5
341,91,1954,81.4167
342,91,1952,81.3333
343,90,1951,81.2917
344,90,1951,81.2917
345,89,1950,81.25
346,89,1950,81.25
347,88,1949,81.2083
348,88,1949,81.2083
349,87,1948,81.1667
350,87,1948,81.1667
351,86,1947,81.125
352,86,1947,81.125
353,85,1946,81.0833
354,85,1946,81.0833
355,84,1945,81.0417
356,84,1945,81.0417
357,83,1944,81
358,83,1944,81
359,82,1943,80.9583
360,82,1943,80.9583
361,81,1942,80.9167
362,81,1942,80.9167
363,80,1941,80.875
364,80,1941,80.875
365,79,1940,80.8333
366,79,1940,80.8333
367,78,1939,80.7917
368,78,1939,80.7917
369,77,1938,80.75
370,77,1938,80.75
371,76,1937,80.7083
372,76,1937,80.7083
373,75,1936,80.6667
374,75,1936,80.6667
375,74,1935,80.625
376,74,1935,80.625
377,73,1934,80.5833
378,73,1934,80.5833
379,72,1933,80.5417
380,72,1933,80.5417
381,71,1932,80.5
382,71,1932,80.5
383,70,1931,80.4583
384,70,1930,80.4167
385,69,1931,80.4583
386,69,2058,85.75
387,68,2057,85.7083
388,68,2057,85.7083
389,67,2056,85.6667
390,67,2056,85.6667
391,66,2055,85.625
392,66,2055,85.625
393,65,2054,85.5833
394,65,2054,85.5833
395,64,2050,85.4167
396,64,2051,85.4583
397,64,2054,85.5833
398,64,2056,85.6667
399,65,2065,86.0417
400,65,2068,86.1667
401,65,2069,86.2083
402,65,2074,86.4167
403,65,3169,132.042
404,65,3173,132.208
405,65,3175,132.292
406,64,2150,89.5833
407,64,2150,89.5833
408,63,2149,89.5417
409,63,2149,89.5417
410,63,3307,137.792
411,63,3308,137.833
412,63,3311,137.958
413,63,3314,138.083
414,63,3317,138.208
415,63,3320,138.333
416,63,3323,138.458
417,63,3326,138.583
418,63,3329,138.708
419,63,3332,138.833
420,63,3335,138.958
421,63,3338,139.083
422,63,3341,139.208
423,63,3344,139.333
424,63,3347,139.458
425,63,3350,139.583
426,63,3353,139.708
427,63,3356,139.833
428,63,3359,139.958
429,63,3362,140.083
430,63,3365,140.208
431,63,3368,140.333
432,63,3371,140.458
433,63,3374,140.583
434,63,3377,140.708
435,63,3380,140.833
436,63,3383,140.958
437,63,3386,141.083
438,63,3389,141.208
439,63,3392,141.333
440,63,3395,141.458
441,63,3398,141.583
442,63,3401,141.708
443,63,3404,141.833
444,63,3407,141.958
445,63,3410,142.083
446,63,3413,142.208
447,63,3416,142.333
448,63,3418,142.417
449,62,3417,142.375
450,62,2648,110.333
451,62,2649,110.375
452,62,2651,110.458
453,62,2653,110.542
454,62,2655,110.625
455,62,2657,110.708
456,62,2659,110.792
457,62,2661,110.875
458,62,2663,110.958
459,62,2665,111.042
460,62,2667,111.125
461,62,2669,111.208
462,62,2670,111.25
463,63,2674,111.417
464,63,2675,111.458
465,65,2687,111.958
466,64,1525,63.5417
467,66,1538,64.0833
468,66,1540,64.1667
469,67,1548,64.5
470,67,1547,64.4583
471,68,1555,64.7917
472,68,1554,64.75
473,69,1562,65.0833
474,69,1561,65.0417
475,69,345,14.375
476,69,342,14.25
477,69,345,14.375
478,69,342,14.25
479,70,1699,70.7917
480,70,1697,70.7083
481,71,1707,71.125
482,71,1704,71
483,72,1714,71.4167
484,72,1711,71.2917
485,73,1721,71.7083
486,73,1718,71.5833
487,74,1728,72
488,74,1725,71.875
489,75,1735,72.2917
490,75,1732,72.1667
491,76,1742,72.5833
492,76,1739,72.4583
493,77,1749,72.875
494,77,1746,72.75
495,78,1756,73.1667
496,78,1753,73.0417
497,79,1763,73.4583
498,79,1760,73.3333
499,80,1770,73.75
500,80,1767,73.625
501,81,1777,74.0417
502,81,1774,73.9167
503,82,1784,74.3333
504,82,1781,74.2083
505,83,1791,74.625
506,83,1788,74.5
507,84,1798,74.9167
508,84,1795,74.7917
509,85,1805,75.2083
510,85,1802,75.0833
511,86,1812,75.5
512,86,1809,75.375
513,87,1818,75.75
514,87,2717,113.208
515,88,2728,113.667
516,88,2726,113.583
517,89,2737,114.042
518,89,2735,113.958
519,90,2746,114.417
520,90,2744,114.333
521,91,2755,114.792
522,91,2753,114.708
523,92,2764,115.167
524,92,2762,115.083
525,93,2776,115.667
526,92,2769,115.375
527,93,2782,115.917
528,92,2773,115.542
529,93,2786,116.083
530,92,2777,115.708
531,93,2789,116.208
532,93,2782,115.917
533,94,2794,116.417
534,95,2795,116.458
535,96,2808,117
536,97,2811,117.125
537,98,2825,117.708
538,98,2823,117.625
539,99,2834,118.083
540,99,2832,118
541,100,2843,118.458
542,100,2841,118.375
543,100,1434,59.75
544,100,1430,59.5833
545,100,1436,59.8333
546,100,1432,59.6667
547,101,2984,124.333
548,101,2981,124.208
549,102,2994,124.75
550,102,2990,124.583
551,103,3003,125.125
552,103,2999,124.958
553,104,3012,125.5
554,104,3008,125.333
555,105,3021,125.875
556,105,3017,125.708
557,106,3030,126.25
558,106,3026,126.083
559,107,3039,126.625
560,107,3035,126.458
561,108,3048,127
562,108,3044,126.833
563,109,3057,127.375
564,109,3053,127.208
565,110,3066,127.75
566,110,3062,127.583
567,111,3075,128.125
568,111,3071,127.958
569,112,3084,128.5
570,112,3080,128.333
571,113,3093,128.875
572,113,3089,128.708
573,114,3102,129.25
574,114,3098,129.083
575,115,3111,129.625
576,115,3107,129.458
577,116,3120,130
578,116,3246,135.25
579,117,3259,135.792
580,117,3255,135.625
581,118,3268,136.167
582,118,3264,136
583,119,3277,136.542
584,119,3273,136.375
585,120,3286,136.917
586,120,3282,136.75
587,121,3295,137.292
588,121,3291,137.125
589,122,3304,137.667
590,122,3300,137.5
591,122,3307,137.792
592,122,3304,137.667
593,122,3311,137.958
594,122,3311,137.958
595,121,3313,138.042
596,121,3312,138
597,120,3312,138
598,120,3311,137.958
599,119,3311,137.958
600,119,3310,137.917
601,118,3307,137.792
602,118,3307,137.792
603,118,3311,137.958
604,118,3311,137.958
605,118,3317,138.208
606,118,3318,138.25
607,117,3316,138.167
608,117,3317,138.208
609,116,3315,138.125
610,116,3316,138.167
611,114,1704,71
612,114,1703,70.9583
613,112,1696,70.6667
614,112,1695,70.625
615,111,3426,142.75
616,111,3426,142.75
617,110,3426,142.75
618,110,3425,142.708
619,109,3425,142.708
620,109,3424,142.667
621,108,3424,142.667
622,108,3423,142.625
623,107,3423,142.625
624,107,3422,142.583
625,106,3422,142.583
626,106,3421,142.542
627,105,3421,142.542
628,105,3420,142.5
629,104,3420,142.5
630,104,3419,142.458
631,103,3419,142.458
632,103,3418,142.417
633,102,3418,142.417
634,102,3417,142.375
635,101,3417,142.375
636,101,3416,142.333
637,100,3416,142.333
638,100,3415,142.292
639,99,3415,142.292
640,99,3414,142.25
641,98,3414,142.25
642,98,3413,142.208
643,97,3543,147.625
644,97,3542,147.583
645,96,3542,147.583
646,96,3541,147.542
647,95,3541,147.542
648,95,3540,147.5
649,94,3540,147.5
650,94,3539,147.458
651,93,3539,147.458
652,93,3538,147.417
653,92,3536,147.333
654,93,3542,147.583
655,92,3540,147.5
656,93,3546,147.75
657,92,3544,147.667
658,93,3550,147.917
659,92,3548,147.833
660,92,3548,147.833
661,91,3547,147.792
662,91,3547,147.792
663,90,3546,147.75
664,90,3546,147.75
665,89,3545,147.708
666,89,3545,147.708
667,88,3544,147.667
668,88,3543,147.625
669,87,3540,147.5
670,87,3541,147.542
671,87,3544,147.667
672,87,3545,147.708
673,87,3548,147.833
674,87,3549,147.875
675,86,3546,147.75
676,86,3548,147.833
677,85,3545,147.708
678,84,1746,72.75
679,83,1744,72.6667
680,82,1738,72.4167
681,81,1736,72.3333
682,81,3657,152.375
683,80,3656,152.333
684,80,3657,152.375
685,79,3655,152.292
686,79,3656,152.333
687,78,3654,152.25
688,78,3655,152.292
689,77,3653,152.208
690,77,3654,152.25
691,76,3652,152.167
692,76,3653,152.208
693,75,3651,152.125
694,75,3652,152.167
695,74,3650,152.083
696,74,3651,152.125
697,73,3649,152.042
698,73,3650,152.083
699,72,3648,152
700,72,3649,152.042
701,71,3647,151.958
702,71,3648,152
703,70,3646,151.917
704,70,3647,151.958
705,69,3645,151.875
706,69,3646,151.917
707,68,3644,151.833
708,68,2291,95.4583
709,67,2287,95.2917
710,67,2287,95.2917
711,66,2284,95.1667
712,66,2284,95.1667
713,65,2281,95.0417
714,65,2281,95.0417
715,64,2278,94.9167
716,64,2278,94.9167
717,63,2275,94.7917
718,63,2275,94.7917
719,62,2272,94.6667
720,62,2272,94.6667
721,61,2269,94.5417
722,61,2267,94.4583
723,61,2271,94.625
724,61,2269,94.5417
725,61,2273,94.7083
726,61,2271,94.625
727,61,2275,94.7917
728,61,2273,94.7083
729,61,2277,94.875
730,61,2275,94.7917
731,61,2279,94.9583
732,61,2277,94.875
733,61,2281,95.0417
734,61,2279,94.9583
735,61,2283,95.125
736,61,2281,95.0417
737,62,3577,149.042
738,62,3577,149.042
739,63,3586,149.417
740,63,3586,149.417
741,63,3589,149.542
742,63,3590,149.583
743,63,3593,149.708
744,63,3594,149.75
745,62,1607,66.9583
746,62,1609,67.0417
747,61,1604,66.8333
748,61,1606,66.9167
749,61,3717,154.875
750,61,3720,155
751,61,3722,155.083
752,61,3724,155.167
753,61,3726,155.25
754,61,3728,155.333
755,61,3730,155.417
756,61,3732,155.5
757,61,3734,155.583
758,61,3736,155.667
759,61,3738,155.75
760,61,3740,155.833
761,61,3742,155.917
762,61,3744,156
763,61,3746,156.083
764,61,3748,156.167
765,61,3750,156.25
766,61,3752,156.333
767,61,3754,156.417
768,61,3756,156.5
769,61,3758,156.583
770,61,3760,156.667
771,61,3761,156.708
772,62,5253,218.875
773,62,5255,218.958
774,62,5258,219.083
775,62,5261,219.208
776,62,5264,219.333
777,62,5267,219.458
778,62,5270,219.583
779,62,5273,219.708
780,62,5276,219.833
781,62,5279,219.958
782,62,5282,220.083
783,62,5285,220.208
784,62,5288,220.333
785,62,5291,220.458
786,62,5294,220.583
787,62,5297,220.708
788,62,5300,220.833
789,62,5303,220.958
790,62,5306,221.083
791,62,5309,221.208
792,62,5312,221.333
793,62,5315,221.458
794,62,5318,221.583
795,62,5321,221.708
796,62,5324,221.833
797,62,5327,221.958
798,62,5330,222.083
799,62,5333,222.208
800,62,5336,222.333
801,62,3989,166.208
802,62,3990,166.25
803,62,3990,166.25
804,63,3999,166.625
805,63,3999,166.625
806,64,4008,167
807,64,4008,167
808,65,4019,167.458
809,65,4020,167.5
810,65,4023,167.625
811,65,4024,167.667
812,64,1848,77
813,64,1850,77.0833
814,63,1845,76.875
815,63,1847,76.9583
816,62,1842,76.75
817,62,1844,76.8333
818,61,1839,76.625
819,61,1841,76.7083
820,60,1836,76.5
821,60,1838,76.5833
822,59,1833,76.375
823,59,1835,76.4583
824,58,1830,76.25
825,58,1832,76.3333
826,57,1827,76.125
827,57,1829,76.2083
828,56,1824,76
829,56,1826,76.0833
830,55,1821,75.875
831,55,1823,75.9583
832,54,1818,75.75
833,54,1820,75.8333
834,53,1815,75.625
835,53,1816,75.6667
836,51,261,10.875
837,51,261,10.875
838,50,255,10.625
839,50,256,10.6667
840,49,250,10.4167
841,49,251,10.4583
842,48,245,10.2083
843,48,246,10.25
844,47,240,10
845,47,241,10.0417
846,46,235,9.79167
847,46,236,9.83333
848,45,230,9.58333
849,45,231,9.625
850,44,225,9.375
851,44,226,9.41667
852,43,220,9.16667
853,43,221,9.20833
854,42,215,8.95833
855,42,216,9
856,41,210,8.75
857,41,211,8.79167
858,40,205,8.54167
859,40,206,8.58333
860,39,200,8.33333
861,39,201,8.375
862,38,195,8.125
863,38,198,8.25
864,37,1667,69.4583
865,37,1669,69.5417
866,36,1664,69.3333
867,36,1666,69.4167
868,35,1661,69.2083
869,35,1663,69.2917
870,34,1657,69.0417
871,34,1657,69.0417
872,33,1650,68.75
873,34,1659,69.125
874,33,1652,68.8333
875,34,1663,69.2917
876,33,1657,69.0417
877,33,1660,69.1667
878,32,1654,68.9167
879,32,1657,69.0417
880,31,1651,68.7917
881,31,1654,68.9167
882,30,1648,68.6667
883,30,1651,68.7917
884,29,1645,68.5417
885,29,1648,68.6667
886,28,1642,68.4167
887,28,1645,68.5417
888,27,1639,68.2917
889,27,1642,68.4167
890,26,1636,68.1667
891,26,1639,68.2917
892,25,1633,68.0417
893,25,1636,68.1667
894,24,1630,67.9167
895,24,1633,68.0417
896,23,1627,67.7917
897,23,1630,67.9167
898,22,1624,67.6667
899,22,1626,67.75
900,21,3296,137.333
901,21,3300,137.5
902,20,3295,137.292
903,20,3299,137.458
904,19,3294,137.25
905,19,3298,137.417
906,18,3293,137.208
907,18,3297,137.375
908,17,3292,137.167
909,17,3296,137.333
910,16,3291,137.125
911,16,3295,137.292
912,15,3290,137.083
913,15,3294,137.25
914,14,3289,137.042
915,14,3293,137.208
916,13,3288,137
917,13,3292,137.167
918,12,3287,136.958
919,12,3291,137.125
920,11,3286,136.917
921,11,3290,137.083
922,10,3285,136.875
923,10,3289,137.042
924,9,3284,136.833
925,9,3288,137
926,8,3283,136.792
927,8,3287,136.958
928,7,3282,136.75
929,8,3292,137.167
930,7,3286,136.917
931,8,3296,137.333
932,7,3290,137.083
933,8,3300,137.5
934,7,3294,137.25
935,8,3304,137.667
936,7,3298,137.417
937,8,3307,137.792
938,7,3299,137.458
939,8,3307,137.792
940,8,3308,137.833
941,9,3316,138.167
942,9,3317,138.208
943,10,3325,138.542
944,10,3326,138.583
945,11,3334,138.917
946,11,3335,138.958
947,12,3343,139.292
948,12,3344,139.333
949,13,3352,139.667
950,13,3353,139.708
951,14,3361,140.042
952,14,3362,140.083
953,15,3370,140.417
954,15,3371,140.458
955,16,3379,140.792
956,16,3380,140.833
957,17,3388,141.167
958,17,3389,141.208
959,18,3397,141.542
960,18,3398,141.583
961,19,3406,141.917
962,19,3407,141.958
963,20,3415,142.292
964,20,3546,147.75
965,21,3554,148.083
966,21,3555,148.125
967,22,3563,148.458
968,22,3564,148.5
969,23,3572,148.833
970,23,3573,148.875
971,24,3581,149.208
972,24,3582,149.25
973,25,3590,149.583
974,25,3591,149.625
975,26,3599,149.958
976,26,3600,150
977,27,3608,150.333
978,27,3609,150.375
979,28,3617,150.708
980,28,3618,150.75
981,29,3626,151.083
982,29,3627,151.125
983,30,3635,151.458
984,30,3636,151.5
985,31,3644,151.833
986,31,3645,151.875
987,32,3653,152.208
988,32,3654,152.25
989,33,3662,152.583
990,32,2055,85.625
991,33,2064,86
992,32,2057,85.7083
993,33,2066,86.0833
994,33,3793,158.042
995,34,3803,158.458
996,34,3803,158.458
997,35,3812,158.833
998,35,3812,158.833
999,36,3821,159.208
1000,36,3821,159.208
1001,37,3830,159.583
1002,37,3830,159.583
1003,38,3839,159.958
1004,38,3839,159.958
1005,39,3848,160.333
1006,39,3848,160.333
1007,40,3857,160.708
1008,40,3857,160.708
1009,41,3866,161.083
1010,41,3866,161.083
1011,42,3875,161.458
1012,42,3875,161.458
1013,43,3884,161.833
1014,43,3884,161.833
1015,44,3893,162.208
1016,44,3893,162.208
1017,45,3902,162.583
1018,45,3902,162.583
1019,46,3911,162.958
1020,46,3911,162.958
1021,47,3920,163.333
1022,47,3920,163.333
1023,48,3929,163.708
1024,48,3929,163.708
1025,49,3938,164.083
1026,49,3938,164.083
1027,50,3947,164.458
1028,50,3947,164.458
1029,50,2017,84.0417
1030,50,2016,84
1031,51,2024,84.3333
1032,51,2023,84.2917
1033,52,2031,84.625
1034,52,2030,84.5833
1035,53,2038,84.9167
1036,53,2037,84.875
1037,54,2045,85.2083
1038,54,2044,85.1667
1039,55,2052,85.5
1040,55,2051,85.4583
1041,56,2059,85.7917
1042,56,2058,85.75
1043,57,2066,86.0833
1044,57,2065,86.0417
1045,58,2073,86.375
1046,58,2072,86.3333
1047,59,2080,86.6667
1048,59,2079,86.625
1049,60,2087,86.9583
1050,60,2086,86.9167
1051,61,2094,87.25
1052,61,2093,87.2083
1053,62,2101,87.5417
1054,62,2100,87.5
1055,62,2102,87.5833
1056,62,2102,87.5833
1057,61,307,12.7917
1058,61,308,12.8333
1059,60,302,12.5833
1060,60,303,12.625
1061,60,2220,92.5
1062,60,2222,92.5833
1063,60,2223,92.625
1064,60,2224,92.6667
1065,60,2225,92.7083
1066,60,2226,92.75
1067,60,2227,92.7917
1068,60,2228,92.8333
1069,60,2229,92.875
1070,60,2230,92.9167
1071,60,2231,92.9583
1072,60,2232,93
1073,60,2233,93.0417
1074,60,2234,93.0833
1075,60,2235,93.125
1076,60,2236,93.1667
1077,60,2237,93.2083
1078,60,2238,93.25
1079,60,2239,93.2917
1080,60,2240,93.3333
1081,60,2241,93.375
1082,60,2242,93.4167
1083,60,2243,93.4583
1084,60,2244,93.5
1085,60,2245,93.5417
1086,60,2246,93.5833
1087,60,2247,93.625
1088,60,2248,93.6667
1089,60,2249,93.7083
1090,60,2250,93.75
1091,60,2251,93.7917
1092,60,2252,93.8333
1093,60,2253,93.875
1094,60,2254,93.9167
1095,60,2255,93.9583
1096,60,2256,94
1097,60,2257,94.0417
1098,60,2258,94.0833
1099,60,2259,94.125
1100,60,2260,94.1667
1101,60,2261,94.2083
1102,60,2262,94.25
1103,60,2263,94.2917
1104,60,2264,94.3333
1105,60,2265,94.375
1106,60,2266,94.4167
1107,60,2267,94.4583
1108,60,2268,94.5
1109,60,2269,94.5417
1110,60,2270,94.5833
1111,60,2271,94.625
1112,60,2272,94.6667
1113,60,2273,94.7083
1114,60,2274,94.75
1115,60,2275,94.7917
1116,61,4341,180.875
1117,61,4341,180.875
1118,62,4350,181.25
1119,62,4350,181.25
1120,63,4359,181.625
1121,63,4359,181.625
1122,63,4362,181.75
1123,63,4363,181.792
1124,62,2380,99.1667
1125,62,2382,99.25
1126,61,2377,99.0417
1127,61,2379,99.125
1128,61,4486,186.917
1129,61,4489,187.042
1130,61,4491,187.125
1131,61,4493,187.208
1132,61,4495,187.292
1133,61,4497,187.375
1134,61,4499,187.458
1135,61,4501,187.542
1136,61,4503,187.625
1137,61,4505,187.708
1138,61,4507,187.792
1139,61,4509,187.875
1140,61,4511,187.958
1141,61,4513,188.042
1142,61,4515,188.125
1143,61,4517,188.208
1144,61,4519,188.292
1145,61,4521,188.375
1146,61,4523,188.458
1147,61,4525,188.542
1148,61,4527,188.625
1149,61,4529,188.708
1150,61,4531,188.792
1151,61,4533,188.875
1152,61,4535,188.958
1153,61,4537,189.042
1154,61,4539,189.125
1155,61,4541,189.208
1156,61,4543,189.292
1157,61,4545,189.375
1158,61,4547,189.458
1159,61,4549,189.542
1160,61,4551,189.625
1161,61,4553,189.708
1162,61,4555,189.792
1163,61,4557,189.875
1164,61,4559,189.958
1165,61,4561,190.042
1166,61,4563,190.125
1167,61,4565,190.208
1168,61,4567,190.292
1169,61,4569,190.375
1170,61,4571,190.458
1171,61,4573,190.542
1172,61,4575,190.625
1173,61,4577,190.708
1174,61,4579,190.792
1175,61,4581,190.875
1176,61,4583,190.958
1177,61,4585,191.042
1178,61,4587,191.125
1179,60,2461,102.542
1180,60,2462,102.583
1181,60,2463,102.625
1182,60,2464,102.667
1183,61,4719,196.625
1184,61,4719,196.625
1185,62,4728,197
1186,62,4728,197
1187,63,4737,197.375
1188,63,4737,197.375
1189,63,4740,197.5
1190,63,4741,197.542
1191,62,2569,107.042
1192,62,2571,107.125
1193,61,2566,106.917
1194,61,2568,107
1195,60,2563,106.792
1196,60,2565,106.875
1197,59,2560,106.667
1198,59,2562,106.75
1199,58,2557,106.542
1200,58,2559,106.625
1201,57,2554,106.417
1202,57,2556,106.5
1203,56,2551,106.292
1204,56,2553,106.375
1205,55,2548,106.167
1206,55,2550,106.25
1207,54,2545,106.042
1208,54,2547,106.125
1209,53,2542,105.917
1210,53,2544,106
1211,52,2539,105.792
1212,52,2541,105.875
1213,51,2536,105.667
1214,51,2538,105.75
1215,50,2533,105.542
1216,50,2535,105.625
1217,49,2530,105.417
1218,49,2532,105.5
1219,48,2527,105.292
1220,48,2529,105.375
1221,47,2524,105.167
1222,47,2526,105.25
1223,46,2521,105.042
1224,46,2523,105.125
1225,45,2518,104.917
1226,45,2520,105
1227,44,2515,104.792
1228,44,2517,104.875
1229,43,2512,104.667
1230,43,2514,104.75
1231,42,2509,104.542
1232,42,2511,104.625
1233,41,2506,104.417
1234,41,2508,104.5
1235,40,2503,104.292
1236,40,2505,104.375
1237,39,2500,104.167
1238,39,2502,104.25
1239,38,2497,104.042
1240,38,2499,104.125
1241,37,2494,103.917
1242,37,2496,104
1243,36,2491,103.792
1244,36,2493,103.875
1245,35,2488,103.667
1246,35,2616,109
1247,34,2611,108.792
1248,34,2613,108.875
1249,33,2608,108.667
1250,33,2610,108.75
1251,32,2603,108.458
1252,33,2612,108.833
1253,32,2605,108.542
1254,33,2614,108.917
1255,32,2607,108.625
1256,32,2610,108.75
1257,31,2604,108.5
1258,31,2607,108.625
1259,30,2601,108.375
1260,30,2604,108.5
1261,29,2598,108.25
1262,29,2601,108.375
1263,28,2595,108.125
1264,28,2598,108.25
1265,27,2592,108
1266,27,2595,108.125
1267,26,2589,107.875
1268,26,2592,108
1269,25,2586,107.75
1270,25,2589,107.875
1271,24,2583,107.625
1272,24,2586,107.75
1273,23,2580,107.5
1274,23,2583,107.625
1275,22,2577,107.375
1276,22,2580,107.5
1277,21,2574,107.25
1278,21,2577,107.375
1279,20,2571,107.125
1280,20,2574,107.25
1281,19,2568,107
1282,19,2571,107.125
1283,18,2565,106.875
1284,18,2568,107
1285,17,2562,106.75
1286,17,2565,106.875
1287,16,2559,106.625
1288,16,2562,106.75
1289,15,2556,106.5
1290,15,2559,106.625
1291,14,2553,106.375
1292,14,2556,106.5
1293,13,2550,106.25
1294,13,2553,106.375
1295,12,2547,106.125
1296,12,2550,106.25
1297,11,2544,106
1298,11,2547,106.125
1299,10,2541,105.875
1300,10,2544,106
1301,9,2538,105.75
1302,9,2541,105.875
1303,8,2535,105.625
1304,8,2538,105.75
1305,7,2532,105.5
1306,7,2535,105.625
1307,6,2529,105.375
1308,6,2532,105.5
1309,5,2652,110.5
1310,5,2655,110.625
1311,4,2649,110.375
1312,4,2652,110.5
1313,3,2646,110.25
1314,3,2649,110.375
1315,2,2643,110.125
1316,2,2646,110.25
1317,1,2640,110
1318,1,2641,110.042
1319,1,2642,110.083
1320,1,2643,110.125
1321,1,2644,110.167
1322,1,2645,110.208
1323,1,2646,110.25
1324,1,2647,110.292
1325,1,2648,110.333
1326,1,2649,110.375
1327,1,2650,110.417
1328,1,2651,110.458
1329,1,2652,110.5
1330,1,2653,110.542
1331,1,2654,110.583
1332,1,2655,110.625
1333,1,2656,110.667
1334,1,2657,110.708
1335,1,2658,110.75
1336,1,2659,110.792
1337,1,2660,110.833
1338,1,2661,110.875
1339,1,2662,110.917
1340,1,2663,110.958
1341,1,2664,111
1342,1,2665,111.042
1343,1,2666,111.083
1344,1,2667,111.125
1345,1,2668,111.167
1346,1,2669,111.208
1347,1,2670,111.25
1348,1,2671,111.292
1349,1,2672,111.333
1350,1,2673,111.375
1351,1,2674,111.417
1352,1,2675,111.458
1353,1,2676,111.5
1354,1,2677,111.542
1355,1,2678,111.583
1356,1,2679,111.625
1357,1,2680,111.667
1358,1,2681,111.708
1359,1,2682,111.75
1360,1,2683,111.792
1361,1,2684,111.833
1362,1,2685,111.875
1363,1,2686,111.917
1364,1,2687,111.958
1365,1,2688,112
1366,1,2689,112.042
1367,1,2690,112.083
1368,1,2691,112.125
1369,1,2692,112.167
1370,1,2693,112.208
1371,1,2694,112.25
1372,1,2821,117.542
1373,1,2822,117.583
1374,1,2823,117.625
1375,1,2824,117.667
1376,1,2825,117.708
1377,1,2826,117.75
1378,1,2827,117.792
1379,1,2828,117.833
1380,1,2829,117.875
1381,1,2830,117.917
1382,1,2831,117.958
1383,1,2832,118
1384,1,2833,118.042
1385,1,2834,118.083
1386,1,2835,118.125
1387,1,2836,118.167
1388,1,2837,118.208
1389,1,2838,118.25
1390,1,2839,118.292
1391,1,2840,118.333
1392,1,2841,118.375
1393,1,2842,118.417
1394,1,2843,118.458
1395,1,2844,118.5
1396,1,2845,118.542
1397,1,2846,118.583
1398,1,2847,118.625
1399,1,2848,118.667
1400,1,2849,118.708
1401,1,2850,118.75
1402,1,2851,118.792
1403,1,2852,118.833
1404,1,2853,118.875
1405,1,2854,118.917
1406,1,2855,118.958
1407,1,2856,119
1408,1,2857,119.042
1409,1,2858,119.083
1410,1,2859,119.125
1411,1,2860,119.167
1412,1,2861,119.208
1413,1,2862,119.25
1414,1,2863,119.292
1415,1,2864,119.333
1416,1,2865,119.375
1417,1,2866,119.417
1418,1,2867,119.458
1419,1,2868,119.5
1420,1,2869,119.542
1421,1,2870,119.583
1422,1,2871,119.625
1423,1,2872,119.667
1424,1,2873,119.708
1425,1,2874,119.75
1426,1,2875,119.792
1427,1,2876,119.833
1428,1,2877,119.875
1429,1,2878,119.917
1430,1,2879,119.958
1431,1,2880,120
1432,1,2881,120.042
1433,1,2882,120.083
1434,1,2883,120.125
1435,1,3010,125.417
1436,1,3011,125.458
1437,1,3012,125.5
1438,1,3013,125.542
1439,1,3014,125.583
1440,1,3015,125.625
1441,1,3016,125.667
1442,1,3017,125.708
1443,1,3018,125.75
1444,1,3019,125.792
1445,1,3020,125.833
1446,1,3021,125.875
1447,1,3022,125.917
1448,1,3023,125.958
1449,1,3024,126
1450,1,3025,126.042
1451,1,3026,126.083
1452,1,3027,126.125
1453,1,3028,126.167
1454,1,3029,126.208
1455,1,3030,126.25
1456,1,3031,126.292
1457,1,3032,126.333
1458,1,3033,126.375
1459,1,3034,126.417
1460,1,3035,126.458
1461,1,3036,126.5
1462,1,3037,126.542
1463,1,3038,126.583
1464,1,3039,126.625
1465,1,3040,126.667
1466,1,3041,126.708
1467,1,3042,126.75
1468,1,3043,126.792
1469,1,3044,126.833
1470,1,3045,126.875
1471,1,3046,126.917
1472,1,3047,126.958
1473,1,3048,127
1474,1,3049,127.042
1475,1,3050,127.083
1476,1,3051,127.125
1477,1,3052,127.167
1478,1,3053,127.208
1479,1,3054,127.25
1480,1,3055,127.292
1481,1,3056,127.333
1482,1,3057,127.375
1483,1,3058,127.417
1484,1,3059,127.458
1485,1,3060,127.5
1486,1,3061,127.542
1487,1,3062,127.583
1488,1,3063,127.625
1489,1,3064,127.667
1490,1,3065,127.708
1491,1,3066,127.75
1492,1,3067,127.792
1493,1,3068,127.833
1494,1,3069,127.875
1495,1,3070,127.917
1496,1,3071,127.958
1497,1,3072,128
1498,1,3073,128.042
1499,1,3074,128.083
1500,1,3075,128.125
1501,1,3076,128.167
1502,1,3077,128.208
1503,1,3078,128.25
1504,1,3079,128.292
1505,1,3080,128.333
1506,1,3081,128.375
1507,1,3082,128.417
1508,1,3083,128.458
1509,1,3084,128.5
1510,1,3085,128.542
1511,1,3086,128.583
1512,1,3087,128.625
1513,1,3088,128.667
1514,1,3089,128.708
1515,1,3090,128.75
1516,1,3091,128.792
1517,1,3092,128.833
1518,1,3093,128.875
1519,1,3094,128.917
1520,1,3095,128.958
1521,1,3096,129
1522,1,3097,129.042
1523,1,3098,129.083
1524,1,3099,129.125
1525,1,3100,129.167
1526,1,3101,129.208
1527,1,3102,129.25
1528,1,3103,129.292
1529,1,3104,129.333
1530,1,3105,129.375
1531,1,3106,129.417
1532,1,3107,129.458
1533,1,3108,129.5
1534,1,3109,129.542
1535,1,3110,129.583
1536,1,3111,129.625
1537,1,3112,129.667
1538,1,3113,129.708
1539,1,3114,129.75
1540,1,3115,129.792
1541,1,3116,129.833
1542,1,3117,129.875
1543,1,3118,129.917
1544,1,3119,129.958
1545,1,3120,130
1546,1,3121,130.042
1547,1,3122,130.083
1548,1,3123,130.125
1549,1,3124,130.167
1550,1,3125,130.208
1551,1,3126,130.25
1552,1,3127,130.292
1553,1,3128,130.333
1554,1,3129,130.375
1555,1,3130,130.417
1556,1,3131,130.458
1557,1,3132,130.5
1558,1,3133,130.542
1559,1,3134,130.583
1560,1,3135,130.625
1561,1,3136,130.667
1562,1,3137,130.708
1563,1,3138,130.75
1564,1,3139,130.792
1565,1,3140,130.833
1566,1,3141,130.875
1567,1,3142,130.917
1568,1,3143,130.958
1569,1,3144,131
1570,1,3145,131.042
1571,1,3146,131.083
1572,1,3147,131.125
1573,1,3148,131.167
1574,1,3149,131.208
1575,1,3150,131.25
1576,1,3151,131.292
1577,1,3152,131.333
1578,1,3153,131.375
1579,1,3154,131.417
1580,1,3155,131.458
1581,1,3156,131.5
1582,1,3157,131.542
1583,1,3158,131.583
1584,1,3159,131.625
1585,1,3160,131.667
1586,1,3161,131.708
1587,1,3162,131.75
1588,1,3163,131.792
1589,1,3164,131.833
1590,1,3165,131.875
1591,1,3166,131.917
1592,1,3167,131.958
1593,1,3168,132
1594,1,3169,132.042
1595,1,3170,132.083
1596,1,3171,132.125
1597,1,3172,132.167
1598,1,3173,132.208
1599,1,3174,132.25
1600,1,3175,132.292
1601,1,3176,132.333
1602,1,3177,132.375
1603,1,3178,132.417
1604,1,3179,132.458
1605,1,3180,132.5
1606,1,3181,132.542
1607,1,3182,132.583
1608,1,3183,132.625
1609,1,3184,132.667
1610,1,3185,132.708
1611,1,3186,132.75
1612,1,3187,132.792
1613,1,3188,132.833
1614,1,3189,132.875
1615,1,3190,132.917
1616,1,3191,132.958
1617,1,3192,133
1618,1,3193,133.042
1619,1,3194,133.083
1620,1,3195,133.125
1621,1,3196,133.167
1622,1,3197,133.208
1623,1,3198,133.25
1624,1,3199,133.292
1625,1,3200,133.333
1626,1,3201,133.375
1627,1,3202,133.417
1628,1,3203,133.458
1629,1,3204,133.5
1630,1,3205,133.542
1631,1,3206,133.583
1632,1,3207,133.625
1633,1,3208,133.667
1634,1,3209,133.708
1635,1,3210,133.75
1636,1,3211,133.792
1637,1,3212,133.833
1638,1,3213,133.875
1639,1,3214,133.917
1640,1,3215,133.958
1641,1,3216,134
1642,1,3217,134.042
1643,1,3218,134.083
1644,1,3219,134.125
1645,1,3220,134.167
1646,1,3221,134.208
1647,1,3222,134.25
1648,1,3223,134.292
1649,1,3224,134.333
1650,1,3225,134.375
1651,1,3226,134.417
1652,1,3227,134.458
1653,1,3228,134.5
1654,1,3229,134.542
1655,1,3230,134.583
1656,1,3231,134.625
1657,1,3232,134.667
1658,1,3233,134.708
1659,1,3234,134.75
1660,1,3235,134.792
1661,1,3236,134.833
1662,1,3237,134.875
1663,1,3238,134.917
1664,1,3239,134.958
1665,1,3240,135
1666,1,3241,135.042
1667,1,3242,135.083
1668,1,3243,135.125
1669,1,3244,135.167
1670,1,3245,135.208
1671,1,3246,135.25
1672,1,3247,135.292
1673,1,3248,135.333
1674,1,3249,135.375
1675,1,3250,135.417
1676,1,3251,135.458
1677,1,3252,135.5
1678,1,3253,135.542
1679,1,3254,135.583
1680,1,3255,135.625
1681,1,3256,135.667
1682,1,3257,135.708
1683,1,3258,135.75
1684,1,3259,135.792
1685,1,3260,135.833
1686,1,3261,135.875
1687,1,3262,135.917
1688,1,3263,135.958
workloadGranularity,avgTotalDD,maxTotalDDLevel,maxTotalDD, avg. # of rows per level,avg. # of nnzs per level
111.32,439.655,799.38,17.8031,68.7732,2671.69
NUM_THREADS:,24
CACHE_LINE:,64

thread workLoads & communication costs
0,1,2,3,4,5,6,7,8,9,10,11,12,13,14,15,16,17,18,19,20,21,22,23
188834,188829,188824,188824,188824,188821,188819,188818,188814,188814,188814,188810,188809,188807,188804,188804,188804,188799,188799,188796,188794,188780,188639,170000,
21986,24733,24213,24651,24601,25401,25661,25556,26733,26361,25962,26509,27380,26328,26192,25986,25869,26052,25904,26487,26174,27589,29478,20651,
stdev:,3757.61
avgTotalDDThread:,5.54167
maxDD:,8
numOfThreadsUsed:,24


