level,# of rows,sum of NNZs,NNZs per HW thread
0,8,8,0.333333
1,18,36,1.5
2,33,84,3.5
3,47,149,6.20833
4,62,217,9.04167
5,80,307,12.7917
6,99,410,17.0833
7,117,520,21.6667
8,140,648,27
9,162,794,33.0833
10,184,943,39.2917
11,206,1104,46
12,229,1275,53.125
13,251,1452,60.5
14,277,1641,68.375
15,302,1844,76.8333
16,328,2049,85.375
17,357,2278,94.9167
18,386,2517,104.875
19,415,2761,115.042
20,446,3012,125.5
21,478,3282,136.75
22,509,3542,147.583
23,545,3837,159.875
24,580,4135,172.292
25,616,4441,185.042
26,654,4766,198.583
27,696,5120,213.333
28,735,5464,227.667
29,775,5830,242.917
30,814,6180,257.5
31,854,6537,272.375
32,892,6892,287.167
33,927,7234,301.417
34,958,7545,314.375
35,989,7876,328.167
36,1019,8179,340.792
37,1047,8472,353
38,1076,8769,365.375
39,1103,9050,377.083
40,1131,9323,388.458
41,1159,9618,400.75
42,1188,9895,412.292
43,1216,10181,424.208
44,1245,10463,435.958
45,1272,10737,447.375
46,1299,10998,458.25
47,1326,11279,469.958
48,1353,11544,481
49,1380,11816,492.333
50,1408,12099,504.125
51,1435,12363,515.125
52,1462,12636,526.5
53,1488,12893,537.208
54,1514,13155,548.125
55,1536,13389,557.875
56,1557,13629,567.875
57,1576,13842,576.75
58,1595,14065,586.042
59,1614,14287,595.292
60,1634,14509,604.542
61,1654,14728,613.667
62,1676,14958,623.25
63,1695,15165,631.875
64,1715,15389,641.208
65,1735,15607,650.292
66,1751,15798,658.25
67,1770,15996,666.5
68,1784,16156,673.167
69,1798,16312,679.667
70,1811,16446,685.25
71,1821,16561,690.042
72,1826,16632,693
73,1834,16707,696.125
74,1835,16742,697.583
75,1837,16776,699
76,1838,16794,699.75
77,1839,16816,700.667
78,1834,16793,699.708
79,1834,16793,699.708
80,1828,16756,698.167
81,1823,16724,696.833
82,1816,16655,693.958
83,1807,16578,690.75
84,1795,16476,686.5
85,1786,16392,683
86,1773,16273,678.042
87,1759,16159,673.292
88,1748,16046,668.583
89,1734,15915,663.125
90,1718,15769,657.042
91,1704,15623,650.958
92,1686,15447,643.625
93,1666,15261,635.875
94,1645,15075,628.125
95,1627,14896,620.667
96,1608,14734,613.917
97,1591,14566,606.917
98,1573,14412,600.5
99,1559,14269,594.542
100,1542,14122,588.417
101,1530,13989,582.875
102,1516,13883,578.458
103,1507,13777,574.042
104,1492,13669,569.542
105,1485,13587,566.125
106,1470,13476,561.5
107,1461,13373,557.208
108,1447,13271,552.958
109,1439,13173,548.875
110,1424,13067,544.458
111,1416,12970,540.417
112,1403,12870,536.25
113,1397,12779,532.458
114,1384,12672,528
115,1375,12572,523.833
116,1361,12453,518.875
117,1352,12350,514.583
118,1337,12228,509.5
119,1329,12131,505.458
120,1314,12002,500.083
121,1304,11899,495.792
122,1289,11775,490.625
123,1281,11679,486.625
124,1267,11583,482.625
125,1256,11465,477.708
126,1241,11381,474.208
127,1231,11282,470.083
128,1215,11182,465.917
129,1207,11093,462.208
130,1198,11042,460.083
131,1188,10920,455
132,1176,10864,452.667
133,1168,10774,448.917
134,1157,10729,447.042
135,1151,10650,443.75
136,1143,10639,443.292
137,1138,10553,439.708
138,1131,10555,439.792
139,1127,10475,436.458
140,1119,10463,435.958
141,1116,10399,433.292
142,1109,10396,433.167
143,1105,10315,429.792
144,1099,10330,430.417
145,1096,10252,427.167
146,1088,10251,427.125
147,1085,10192,424.667
148,1079,10201,425.042
149,1076,10123,421.792
150,1071,10167,423.625
151,1071,10086,420.25
152,1066,10125,421.875
153,1065,10051,418.792
154,1058,10060,419.167
155,1055,9979,415.792
156,1050,10007,416.958
157,1046,9902,412.583
158,1045,9950,414.583
159,1044,9866,411.083
160,1041,9886,411.917
161,1038,9803,408.458
162,1034,9823,409.292
163,1029,9715,404.792
164,1025,9737,405.708
165,1022,9647,401.958
166,1019,9664,402.667
167,1016,9580,399.167
168,1014,9610,400.417
169,1008,9480,395
170,1007,9517,396.542
171,1000,9397,391.542
172,999,9432,393
173,992,9326,388.583
174,991,9366,390.25
175,985,9262,385.917
176,984,9311,387.958
177,978,9201,383.375
178,977,9249,385.375
179,972,9156,381.5
180,970,9189,382.875
181,965,9098,379.083
182,964,9148,381.167
183,957,9023,375.958
184,957,9081,378.375
185,953,8991,374.625
186,953,9035,376.458
187,951,8972,373.833
188,951,9025,376.042
189,947,8933,372.208
190,947,8993,374.708
191,943,8904,371
192,941,8934,372.25
193,937,8853,368.875
194,935,8883,370.125
195,929,8785,366.042
196,927,8823,367.625
197,921,8719,363.292
198,916,8710,362.917
199,910,8602,358.417
200,903,8559,356.625
201,890,8406,350.25
202,881,8359,348.292
203,868,8203,341.792
204,858,8136,339
205,843,7967,331.958
206,832,7880,328.333
207,816,7712,321.333
208,804,7610,317.083
209,787,7437,309.875
210,776,7351,306.292
211,757,7159,298.292
212,745,7061,294.208
213,729,6899,287.458
214,718,6789,282.875
215,700,6630,276.25
216,688,6510,271.25
217,669,6345,264.375
218,658,6232,259.667
219,639,6064,252.667
220,627,5939,247.458
221,608,5780,240.833
222,596,5655,235.625
223,577,5484,228.5
224,564,5353,223.042
225,545,5181,215.875
226,531,5036,209.833
227,513,4882,203.417
228,499,4738,197.417
229,480,4562,190.083
230,466,4436,184.833
231,448,4264,177.667
232,434,4131,172.125
233,417,3986,166.083
234,402,3835,159.792
235,387,3696,154
236,373,3561,148.375
237,358,3406,141.917
238,344,3271,136.292
239,329,3111,129.625
240,314,2954,123.083
241,296,2784,116
242,279,2603,108.458
243,260,2425,101.042
244,247,2295,95.625
245,229,2120,88.3333
246,215,1973,82.2083
247,200,1844,76.8333
248,187,1696,70.6667
249,171,1556,64.8333
250,161,1455,60.625
251,147,1317,54.875
252,136,1199,49.9583
253,123,1098,45.75
254,111,962,40.0833
255,98,862,35.9167
256,90,777,32.375
257,77,665,27.7083
258,69,581,24.2083
259,60,520,21.6667
260,52,424,17.6667
261,43,363,15.125
262,39,318,13.25
263,31,255,10.625
264,27,213,8.875
265,22,186,7.75
266,17,129,5.375
267,13,110,4.58333
268,12,90,3.75
269,10,74,3.08333
270,9,65,2.70833
271,7,50,2.08333
272,5,32,1.33333
273,4,29,1.20833
274,3,18,0.75
275,1,7,0.291667
workloadGranularity,avgTotalDD,maxTotalDDLevel,maxTotalDD, avg. # of rows per level,avg. # of nnzs per level
353.821,7.08333,121.92,0.411615,938.971,8491.71
NUM_THREADS:,24
CACHE_LINE:,64

thread workLoads & communication costs
0,1,2,3,4,5,6,7,8,9,10,11,12,13,14,15,16,17,18,19,20,21,22,23
97813,97812,97805,97803,97800,97799,97792,97786,97785,97785,97780,97780,97780,97775,97774,97770,97769,97765,97760,97760,97760,97749,97719,94792,
8830,19525,18960,19332,19799,17622,15702,15473,18528,17528,19017,18170,17026,15560,17034,17993,16038,12772,13782,15630,15602,16624,16458,8168,
stdev:,597.287
avgTotalDDThread:,2.41667
maxDD:,4
numOfThreadsUsed:,24


